motion_frame#	time(s)	emergency	head_z(mm)
1	0	0	1832.13
2	0.017	0	1832.02
3	0.033	0	1832.01
4	0.05	0	1831.97
5	0.067	0	1832.01
6	0.083	0	1831.95
7	0.1	0	1832.01
8	0.117	0	1831.99
9	0.133	0	1831.9
10	0.15	0	1832.02
11	0.167	0	1832
12	0.183	0	1832
13	0.2	0	1831.94
14	0.217	0	1831.95
15	0.233	0	1831.97
16	0.25	0	1831.88
17	0.267	0	1831.73
18	0.283	0	1831.67
19	0.3	0	1831.7
20	0.317	0	1831.68
21	0.333	0	1831.7
22	0.35	0	1831.69
23	0.367	0	1831.74
24	0.383	0	1831.8
25	0.4	0	1831.89
26	0.417	0	1831.92
27	0.433	0	1831.99
28	0.45	0	1832.1
29	0.467	0	1832.19
30	0.483	0	1832.23
31	0.5	0	1832.35
32	0.517	0	1832.42
33	0.533	0	1832.44
34	0.55	0	1832.56
35	0.567	0	1832.72
36	0.583	0	1832.81
37	0.6	0	1833.02
38	0.617	0	1833.11
39	0.633	0	1833.19
40	0.65	0	1833.18
41	0.667	0	1833.19
42	0.683	0	1833.28
43	0.7	0	1833.32
44	0.717	0	1833.35
45	0.733	0	1833.42
46	0.75	0	1833.47
47	0.767	0	1833.48
48	0.783	0	1833.5
49	0.8	0	1833.54
50	0.817	0	1833.6
51	0.833	0	1833.62
52	0.85	0	1833.59
53	0.867	0	1833.58
54	0.883	0	1833.64
55	0.9	0	1833.65
56	0.917	0	1833.62
57	0.933	0	1833.59
58	0.95	0	1833.55
59	0.967	0	1833.55
60	0.983	0	1833.52
61	1	0	1833.5
62	1.017	0	1833.48
63	1.033	0	1833.48
64	1.05	0	1833.45
65	1.067	0	1833.42
66	1.083	0	1833.41
67	1.1	0	1833.4
68	1.117	0	1833.37
69	1.133	0	1833.36
70	1.15	0	1833.37
71	1.167	0	1833.36
72	1.183	0	1833.38
73	1.2	0	1833.34
74	1.217	0	1833.33
75	1.233	0	1833.37
76	1.25	0	1833.32
77	1.267	0	1833.29
78	1.283	0	1833.31
79	1.3	0	1833.37
80	1.317	0	1833.37
81	1.333	0	1833.35
82	1.35	0	1833.37
83	1.367	0	1833.39
84	1.383	0	1833.35
85	1.4	0	1833.39
86	1.417	0	1833.38
87	1.433	0	1833.39
88	1.45	0	1833.34
89	1.467	0	1833.37
90	1.483	0	1833.29
91	1.5	0	1833.2
92	1.517	0	1833.15
93	1.533	0	1833.05
94	1.55	0	1833.03
95	1.567	0	1832.98
96	1.583	0	1832.98
97	1.6	0	1832.93
98	1.617	0	1832.91
99	1.633	0	1832.9
100	1.65	0	1832.95
101	1.667	0	1832.96
102	1.683	0	1832.96
103	1.7	0	1832.98
104	1.717	0	1832.94
105	1.733	0	1832.97
106	1.75	0	1833.01
107	1.767	0	1832.9
108	1.783	0	1832.81
109	1.8	0	1832.74
110	1.817	0	1832.64
111	1.833	0	1832.57
112	1.85	0	1832.5
113	1.867	0	1832.45
114	1.883	0	1832.37
115	1.9	0	1832.31
116	1.917	0	1832.3
117	1.933	0	1832.27
118	1.95	0	1832.29
119	1.967	0	1832.29
120	1.983	0	1832.33
121	2	0	1832.36
122	2.017	0	1832.34
123	2.033	0	1832.34
124	2.05	0	1832.27
125	2.067	0	1832.22
126	2.083	0	1832.18
127	2.1	0	1832.14
128	2.117	0	1832.12
129	2.133	0	1832.02
130	2.15	0	1831.98
131	2.167	0	1831.98
132	2.183	0	1831.95
133	2.2	0	1831.85
134	2.217	0	1831.87
135	2.233	0	1831.84
136	2.25	0	1831.78
137	2.267	0	1831.79
138	2.283	0	1831.79
139	2.3	0	1831.68
140	2.317	0	1831.59
141	2.333	0	1831.52
142	2.35	0	1831.44
143	2.367	0	1831.41
144	2.383	0	1831.38
145	2.4	0	1831.35
146	2.417	0	1831.3
147	2.433	0	1831.24
148	2.45	0	1831.17
149	2.467	0	1831.11
150	2.483	0	1831.01
151	2.5	0	1830.94
152	2.517	0	1830.96
153	2.533	0	1830.91
154	2.55	0	1830.89
155	2.567	0	1830.92
156	2.583	0	1830.97
157	2.6	0	1831.09
158	2.617	0	1831.29
159	2.633	0	1831.79
160	2.65	0	1832.33
161	2.667	0	1833.24
162	2.683	0	1834.14
163	2.7	0	1835.28
164	2.717	0	1836.59
165	2.733	0	1837.88
166	2.75	0	1839.32
167	2.767	0	1840.62
168	2.783	0	1841.78
169	2.8	0	1842.68
170	2.817	0	1843.36
171	2.833	0	1843.69
172	2.85	0	1843.75
173	2.867	0	1843.67
174	2.883	0	1843.1
175	2.9	0	1842.23
176	2.917	0	1840.92
177	2.933	0	1839.52
178	2.95	0	1837.88
179	2.967	0	1835.94
180	2.983	0	1834.15
181	3	0	1832.12
182	3.017	0	1830.31
183	3.033	0	1828.5
184	3.05	0	1826.86
185	3.067	0	1825.27
186	3.083	0	1823.88
187	3.1	0	1822.64
188	3.117	0	1821.44
189	3.133	0	1820.36
190	3.15	0	1819.44
191	3.167	0	1818.56
192	3.183	0	1818.08
193	3.2	0	1817.9
194	3.217	0	1818
195	3.233	0	1818.34
196	3.25	0	1818.93
197	3.267	0	1819.9
198	3.283	0	1820.79
199	3.3	0	1822.2
200	3.317	0	1823.83
201	3.333	0	1825.69
202	3.35	0	1827.65
203	3.367	0	1829.88
204	3.383	0	1832.12
205	3.4	0	1834.6
206	3.417	0	1836.94
207	3.433	0	1839.28
208	3.45	0	1841.58
209	3.467	0	1843.53
210	3.483	0	1845.54
211	3.5	0	1847.55
212	3.517	0	1849.27
213	3.533	0	1850.84
214	3.55	0	1852.25
215	3.567	0	1853.58
216	3.583	0	1854.81
217	3.6	0	1855.66
218	3.617	0	1856.66
219	3.633	0	1857.31
220	3.65	0	1858.05
221	3.667	0	1858.38
222	3.683	0	1858.67
223	3.7	0	1858.7
224	3.717	0	1858.69
225	3.733	0	1858.42
226	3.75	0	1858.32
227	3.767	0	1858.07
228	3.783	0	1857.89
229	3.8	0	1857.83
230	3.817	0	1857.74
231	3.833	0	1857.31
232	3.85	0	1856.71
233	3.867	0	1855.71
234	3.883	0	1854.5
235	3.9	0	1852.96
236	3.917	0	1851.37
237	3.933	0	1849.82
238	3.95	0	1848.57
239	3.967	0	1847.56
240	3.983	0	1846.7
241	4	0	1846.21
242	4.017	0	1845.78
243	4.033	0	1845.47
244	4.05	0	1845.07
245	4.067	0	1845.27
246	4.083	0	1845.6
247	4.1	0	1846.07
248	4.117	0	1846.42
249	4.133	0	1846.97
250	4.15	0	1847.57
251	4.167	0	1847.94
252	4.183	0	1848.55
253	4.2	0	1849.05
254	4.217	0	1849.33
255	4.233	0	1849.88
256	4.25	0	1850.78
257	4.267	0	1851.07
258	4.283	0	1851.96
259	4.3	0	1852.45
260	4.317	0	1852.75
261	4.333	0	1853.09
262	4.35	0	1853.57
263	4.367	0	1853.87
264	4.383	0	1854.24
265	4.4	0	1854.54
266	4.417	0	1854.91
267	4.433	0	1855.18
268	4.45	0	1855.55
269	4.467	0	1855.87
270	4.483	0	1856.4
271	4.5	0	1856.68
272	4.517	0	1856.97
273	4.533	0	1857.15
274	4.55	0	1857.07
275	4.567	0	1856.85
276	4.583	0	1856.59
277	4.6	0	1856.3
278	4.617	0	1856.05
279	4.633	0	1855.78
280	4.65	0	1855.63
281	4.667	0	1855.58
282	4.683	0	1855.68
283	4.7	0	1856.02
284	4.717	0	1856.41
285	4.733	0	1856.87
286	4.75	0	1857.38
287	4.767	0	1857.98
288	4.783	0	1858.41
289	4.8	0	1858.68
290	4.817	0	1858.75
291	4.833	0	1858.59
292	4.85	0	1858.03
293	4.867	0	1857.22
294	4.883	0	1856.31
295	4.9	0	1855.03
296	4.917	0	1853.51
297	4.933	0	1851.59
298	4.95	0	1849.38
299	4.967	0	1846.76
300	4.983	0	1843.74
301	5	0	1840.21
302	5.017	0	1836.04
303	5.033	0	1831.22
304	5.05	0	1825.77
305	5.067	0	1819.54
306	5.083	0	1812.4
307	5.1	0	1804.37
308	5.117	0	1795.2
309	5.133	0	1784.74
310	5.15	0	1773.19
311	5.167	0	1760.04
312	5.183	0	1745.4
313	5.2	0	1729.57
314	5.217	0	1712.59
315	5.233	0	1694.35
316	5.25	0	1675.25
317	5.267	0	1655.27
318	5.283	0	1634.68
319	5.3	0	1613.72
320	5.317	0	1592.3
321	5.333	0	1570.77
322	5.35	0	1548.96
323	5.367	0	1526.88
324	5.383	0	1504.46
325	5.4	0	1481.81
326	5.417	0	1459.06
327	5.433	0	1436.17
328	5.45	0	1413.39
329	5.467	0	1390.76
330	5.483	0	1368.41
331	5.5	0	1346.4
332	5.517	1	1325.05
333	5.533	1	1304.06
334	5.55	1	1284.07
335	5.567	1	1264.94
336	5.583	1	1246.71
337	5.6	1	1229.49
338	5.617	1	1213.18
339	5.633	1	1198.12
340	5.65	1	1184.04
341	5.667	1	1170.88
342	5.683	1	1158.77
343	5.7	1	1147.89
344	5.717	1	1137.78
345	5.733	1	1128.64
346	5.75	1	1120.35
347	5.767	1	1113.05
348	5.783	1	1106.56
349	5.8	1	1101.01
350	5.817	1	1096.32
351	5.833	1	1092.32
352	5.85	1	1089.11
353	5.867	1	1086.64
354	5.883	1	1084.74
355	5.9	1	1083.28
356	5.917	1	1082.43
357	5.933	1	1082
358	5.95	1	1081.81
359	5.967	1	1081.74
360	5.983	0	1081.98
361	6	0	1082.24
362	6.017	0	1082.41
363	6.033	0	1082.69
364	6.05	1	1082.64
365	6.067	1	1082.63
366	6.083	1	1082.57
367	6.1	1	1082.12
368	6.117	1	1081.7
369	6.133	1	1081.14
370	6.15	1	1080.46
371	6.167	1	1079.67
372	6.183	1	1078.72
373	6.2	1	1077.71
374	6.217	1	1076.46
375	6.233	1	1075.28
376	6.25	1	1074.02
377	6.267	1	1072.63
378	6.283	1	1071.38
379	6.3	1	1070.24
380	6.317	1	1068.95
381	6.333	1	1067.96
382	6.35	1	1067.04
383	6.367	1	1066.36
384	6.383	1	1066.11
385	6.4	1	1066.07
386	6.417	0	1066.4
387	6.433	0	1067.35
388	6.45	0	1068.57
389	6.467	0	1070.53
390	6.483	0	1073.03
391	6.5	0	1076.37
392	6.517	0	1080.23
393	6.533	0	1084.97
394	6.55	0	1090.24
395	6.567	0	1096.29
396	6.583	0	1103.17
397	6.6	0	1110.97
398	6.617	0	1119.42
399	6.633	0	1128.71
400	6.65	0	1138.9
401	6.667	0	1150.05
402	6.683	0	1162.45
403	6.7	0	1175.87
404	6.717	0	1190.6
405	6.733	0	1206.89
406	6.75	0	1224.33
407	6.767	0	1243.43
408	6.783	0	1263.87
409	6.8	0	1285.91
410	6.817	0	1309.36
411	6.833	0	1333.86
412	6.85	0	1359.6
413	6.867	0	1386.07
414	6.883	0	1413.15
415	6.9	0	1440.68
416	6.917	0	1468.32
417	6.933	0	1496
418	6.95	0	1523.51
419	6.967	0	1550.61
420	6.983	0	1577.1
421	7	0	1602.95
422	7.017	0	1628.06
423	7.033	0	1652.08
424	7.05	0	1674.96
425	7.067	0	1696.69
426	7.083	0	1717.14
427	7.1	0	1736.27
428	7.117	0	1754.14
429	7.133	0	1770.67
430	7.15	0	1785.63
431	7.167	0	1799.37
432	7.183	0	1811.75
433	7.2	0	1822.86
434	7.217	0	1832.83
435	7.233	0	1841.73
436	7.25	0	1849.62
437	7.267	0	1856.62
438	7.283	0	1862.87
439	7.3	0	1868.46
440	7.317	0	1873.37
441	7.333	0	1877.61
442	7.35	0	1881.24
443	7.367	0	1884.46
444	7.383	0	1887
445	7.4	0	1889.27
446	7.417	0	1891.19
447	7.433	0	1892.71
448	7.45	0	1894.04
449	7.467	0	1895.18
450	7.483	0	1896.04
451	7.5	0	1896.66
452	7.517	0	1897.18
453	7.533	0	1897.73
454	7.55	0	1898
455	7.567	0	1898.15
456	7.583	0	1898.41
457	7.6	0	1898.79
458	7.617	0	1899.12
459	7.633	0	1899.46
460	7.65	0	1899.82
461	7.667	0	1900.11
462	7.683	0	1900.42
463	7.7	0	1900.86
464	7.717	0	1901.29
465	7.733	0	1901.55
466	7.75	0	1901.91
467	7.767	0	1902.12
468	7.783	0	1902.52
469	7.8	0	1902.74
470	7.817	0	1902.75
471	7.833	0	1902.9
472	7.85	0	1903.01
473	7.867	0	1902.9
474	7.883	0	1902.77
475	7.9	0	1902.59
476	7.917	0	1902.36
477	7.933	0	1902.11
478	7.95	0	1901.72
479	7.967	0	1901.31
480	7.983	0	1901.13
481	8	0	1900.85
482	8.017	0	1900.27
483	8.033	0	1899.68
484	8.05	0	1898.92
485	8.067	0	1897.9
486	8.083	0	1896.52
487	8.1	0	1894.97
488	8.117	0	1892.84
489	8.133	0	1890.46
490	8.15	0	1887.04
491	8.167	0	1882.99
492	8.183	0	1878.13
493	8.2	0	1872.52
494	8.217	0	1865.74
495	8.233	0	1857.62
496	8.25	0	1848.1
497	8.267	0	1836.95
498	8.283	0	1824.04
499	8.3	0	1809.71
500	8.317	0	1793.6
501	8.333	0	1775.59
502	8.35	0	1755.88
503	8.367	0	1734.66
504	8.383	0	1711.82
505	8.4	0	1687.87
506	8.417	0	1662.59
507	8.433	0	1636.38
508	8.45	0	1609.48
509	8.467	0	1581.81
510	8.483	0	1553.99
511	8.5	0	1525.93
512	8.517	0	1497.87
513	8.533	0	1470.24
514	8.55	0	1443.02
515	8.567	0	1416.49
516	8.583	0	1390.96
517	8.6	0	1366.34
518	8.617	0	1342.65
519	8.633	1	1319.69
520	8.65	1	1297.76
521	8.667	1	1276.55
522	8.683	1	1256.13
523	8.7	1	1236.34
524	8.717	1	1217.16
525	8.733	1	1198.52
526	8.75	1	1180.47
527	8.767	1	1163.12
528	8.783	1	1146.56
529	8.8	1	1130.55
530	8.817	1	1115.48
531	8.833	1	1101.35
532	8.85	1	1088.02
533	8.867	1	1075.94
534	8.883	1	1064.84
535	8.9	1	1054.93
536	8.917	1	1046.35
537	8.933	1	1038.73
538	8.95	1	1032.41
539	8.967	1	1027.04
540	8.983	1	1022.98
541	9	1	1019.87
542	9.017	1	1016.79
543	9.033	1	1014.74
544	9.05	1	1013.6
545	9.067	1	1013.11
546	9.083	1	1012.38
547	9.1	0	1012.49
548	9.117	0	1012.59
549	9.133	0	1012.79
550	9.15	0	1012.99
551	9.167	0	1013.08
552	9.183	0	1013.15
553	9.2	0	1013.32
554	9.217	1	1013.04
555	9.233	1	1012.73
556	9.25	0	1012.76
557	9.267	1	1012.57
558	9.283	1	1012.18
559	9.3	1	1011.38
560	9.317	1	1011.3
561	9.333	1	1010.92
562	9.35	1	1010.77
563	9.367	1	1010.73
564	9.383	1	1010.65
565	9.4	0	1010.69
566	9.417	1	1010.02
567	9.433	0	1010.19
568	9.45	0	1010.72
569	9.467	0	1011.14
570	9.483	0	1011.39
571	9.5	0	1012.12
572	9.517	0	1012.75
573	9.533	0	1013.64
574	9.55	0	1014.46
575	9.567	0	1015.03
576	9.583	0	1015.64
577	9.6	0	1016.43
578	9.617	0	1017.39
579	9.633	0	1018.25
580	9.65	0	1019
581	9.667	0	1020.48
582	9.683	0	1021.38
583	9.7	0	1022.16
584	9.717	0	1023.08
585	9.733	0	1024.32
586	9.75	0	1025.73
587	9.767	0	1027.28
588	9.783	0	1029.11
589	9.8	0	1031.58
590	9.817	0	1034.43
591	9.833	0	1037.93
592	9.85	0	1042.21
593	9.867	0	1047.49
594	9.883	0	1053.87
595	9.9	0	1061.78
596	9.917	0	1071.26
597	9.933	0	1082.76
598	9.95	0	1095.94
599	9.967	0	1111.18
600	9.983	0	1128.27
601	10	0	1147.28
602	10.017	0	1167.93
603	10.033	0	1190.04
604	10.05	0	1213.43
605	10.067	0	1237.89
606	10.083	0	1263.09
607	10.1	0	1288.55
608	10.117	0	1314.4
609	10.133	0	1340.45
610	10.15	0	1366.56
611	10.167	0	1392.48
612	10.183	0	1417.94
613	10.2	0	1443
614	10.217	0	1467.63
615	10.233	0	1491.8
616	10.25	0	1515.06
617	10.267	0	1537.87
618	10.283	0	1559.71
619	10.3	0	1580.73
620	10.317	0	1600.86
621	10.333	0	1620.03
622	10.35	0	1638.27
623	10.367	0	1655.51
624	10.383	0	1671.92
625	10.4	0	1687.54
626	10.417	0	1702.29
627	10.433	0	1716.35
628	10.45	0	1729.63
629	10.467	0	1742.32
630	10.483	0	1753.87
631	10.5	0	1765.09
632	10.517	0	1775.51
633	10.533	0	1785.53
634	10.55	0	1794.88
635	10.567	0	1803.63
636	10.583	0	1811.85
637	10.6	0	1819.57
638	10.617	0	1826.8
639	10.633	0	1833.57
640	10.65	0	1839.7
641	10.667	0	1845.32
642	10.683	0	1850.58
643	10.7	0	1855.45
644	10.717	0	1859.93
645	10.733	0	1863.96
646	10.75	0	1867.63
647	10.767	0	1870.95
648	10.783	0	1873.87
649	10.8	0	1876.3
650	10.817	0	1878.59
651	10.833	0	1880.86
652	10.85	0	1882.81
653	10.867	0	1884.66
654	10.883	0	1886.2
655	10.9	0	1887.66
656	10.917	0	1888.94
657	10.933	0	1890.06
658	10.95	0	1891.11
659	10.967	0	1892.03
660	10.983	0	1892.68
661	11	0	1893.34
662	11.017	0	1893.78
663	11.033	0	1894.08
664	11.05	0	1894.33
665	11.067	0	1894.6
666	11.083	0	1894.81
667	11.1	0	1894.99
668	11.117	0	1895.1
669	11.133	0	1895.24
670	11.15	0	1895.38
671	11.167	0	1895.58
672	11.183	0	1895.76
673	11.2	0	1896.08
674	11.217	0	1896.26
675	11.233	0	1896.5
676	11.25	0	1896.68
677	11.267	0	1896.85
678	11.283	0	1896.84
679	11.3	0	1896.96
680	11.317	0	1896.95
681	11.333	0	1897
682	11.35	0	1897.05
683	11.367	0	1897
684	11.383	0	1896.9
685	11.4	0	1896.9
686	11.417	0	1896.77
687	11.433	0	1896.71
688	11.45	0	1896.63
689	11.467	0	1896.45
690	11.483	0	1896.27
691	11.5	0	1896
692	11.517	0	1895.76
693	11.533	0	1895.41
694	11.55	0	1895.08
695	11.567	0	1894.44
696	11.583	0	1893.99
697	11.6	0	1893.29
698	11.617	0	1892.39
699	11.633	0	1891.44
700	11.65	0	1890.14
701	11.667	0	1888.74
702	11.683	0	1886.92
703	11.7	0	1884.58
704	11.717	0	1881.96
705	11.733	0	1878.89
706	11.75	0	1875.27
707	11.767	0	1871.06
708	11.783	0	1866.19
709	11.8	0	1860.56
710	11.817	0	1854.08
711	11.833	0	1846.81
712	11.85	0	1838.74
713	11.867	0	1829.94
714	11.883	0	1820.15
715	11.9	0	1809.61
716	11.917	0	1798.2
717	11.933	0	1785.89
718	11.95	0	1772.95
719	11.967	0	1759.3
720	11.983	0	1745.02
721	12	0	1730.14
722	12.017	0	1714.7
723	12.033	0	1698.6
724	12.05	0	1682.04
725	12.067	0	1664.96
726	12.083	0	1647.48
727	12.1	0	1629.55
728	12.117	0	1611.39
729	12.133	0	1592.89
730	12.15	0	1574.22
731	12.167	0	1555.29
732	12.183	0	1536.32
733	12.2	0	1517.18
734	12.217	0	1498.1
735	12.233	0	1479.02
736	12.25	0	1460.12
737	12.267	0	1441.44
738	12.283	0	1423.03
739	12.3	0	1404.78
740	12.317	0	1386.96
741	12.333	0	1369.45
742	12.35	0	1352.57
743	12.367	1	1335.9
744	12.383	1	1319.93
745	12.4	1	1304.48
746	12.417	1	1289.5
747	12.433	1	1275.13
748	12.45	1	1261.42
749	12.467	1	1248.14
750	12.483	1	1235.51
751	12.5	1	1223.59
752	12.517	1	1212.26
753	12.533	1	1201.45
754	12.55	1	1191.37
755	12.567	1	1181.77
756	12.583	1	1172.69
757	12.6	1	1164.42
758	12.617	1	1156.76
759	12.633	1	1150.06
760	12.65	1	1144.13
761	12.667	1	1139.01
762	12.683	1	1134.7
763	12.7	1	1131.08
764	12.717	1	1128.36
765	12.733	1	1126.26
766	12.75	1	1124.7
767	12.767	1	1123.62
768	12.783	1	1123.04
769	12.8	1	1122.95
770	12.817	0	1123.27
771	12.833	0	1123.86
772	12.85	0	1124.51
773	12.867	0	1125.49
774	12.883	0	1126.67
775	12.9	0	1127.8
776	12.917	0	1129.2
777	12.933	0	1130.24
778	12.95	0	1131.56
779	12.967	0	1132.68
780	12.983	0	1133.71
781	13	0	1134.64
782	13.017	0	1135.44
783	13.033	0	1136.15
784	13.05	0	1136.58
785	13.067	0	1137.22
786	13.083	0	1137.61
787	13.1	0	1137.9
788	13.117	0	1138.19
789	13.133	0	1138.5
790	13.15	0	1138.8
791	13.167	0	1139.02
792	13.183	0	1139.45
793	13.2	0	1139.64
794	13.217	0	1140.13
795	13.233	0	1140.56
796	13.25	0	1141.11
797	13.267	0	1142.07
798	13.283	0	1143.02
799	13.3	0	1144.38
800	13.317	0	1146.14
801	13.333	0	1148.43
802	13.35	0	1151.2
803	13.367	0	1154.85
804	13.383	0	1159.22
805	13.4	0	1164.71
806	13.417	0	1171.15
807	13.433	0	1178.69
808	13.45	0	1187.49
809	13.467	0	1197.61
810	13.483	0	1208.91
811	13.5	0	1221.42
812	13.517	0	1235.15
813	13.533	0	1250.03
814	13.55	0	1265.98
815	13.567	0	1282.95
816	13.583	0	1301.04
817	13.6	0	1319.78
818	13.617	0	1339.47
819	13.633	0	1359.61
820	13.65	0	1380.34
821	13.667	0	1401.46
822	13.683	0	1422.71
823	13.7	0	1444.16
824	13.717	0	1465.64
825	13.733	0	1487.12
826	13.75	0	1508.23
827	13.767	0	1529.19
828	13.783	0	1549.71
829	13.8	0	1569.77
830	13.817	0	1589.35
831	13.833	0	1608.06
832	13.85	0	1626.08
833	13.867	0	1643.45
834	13.883	0	1660.1
835	13.9	0	1675.99
836	13.917	0	1691.23
837	13.933	0	1705.62
838	13.95	0	1719.42
839	13.967	0	1732.59
840	13.983	0	1745.18
841	14	0	1757.04
842	14.017	0	1768.31
843	14.033	0	1778.91
844	14.05	0	1788.93
845	14.067	0	1798.32
846	14.083	0	1807.17
847	14.1	0	1815.38
848	14.117	0	1823.01
849	14.133	0	1829.88
850	14.15	0	1836.38
851	14.167	0	1842.31
852	14.183	0	1847.66
853	14.2	0	1852.44
854	14.217	0	1856.76
855	14.233	0	1861.1
856	14.25	0	1864.73
857	14.267	0	1868.22
858	14.283	0	1871.36
859	14.3	0	1874.34
860	14.317	0	1877.24
861	14.333	0	1879.94
862	14.35	0	1882.35
863	14.367	0	1884.51
864	14.383	0	1886.39
865	14.4	0	1888.06
866	14.417	0	1889.65
867	14.433	0	1890.62
868	14.45	0	1891.71
869	14.467	0	1892.45
870	14.483	0	1893.29
871	14.5	0	1893.89
872	14.517	0	1894.29
873	14.533	0	1894.79
874	14.55	0	1895.38
875	14.567	0	1895.57
876	14.583	0	1895.86
877	14.6	0	1895.98
878	14.617	0	1896.23
879	14.633	0	1896.63
880	14.65	0	1896.83
881	14.667	0	1897.03
882	14.683	0	1897.16
883	14.7	0	1897.34
884	14.717	0	1897.44
885	14.733	0	1897.63
886	14.75	0	1897.87
887	14.767	0	1897.94
888	14.783	0	1897.94
889	14.8	0	1897.96
890	14.817	0	1897.88
891	14.833	0	1897.95
892	14.85	0	1897.99
893	14.867	0	1897.92
894	14.883	0	1897.94
895	14.9	0	1897.75
896	14.917	0	1897.73
897	14.933	0	1897.66
898	14.95	0	1897.53
899	14.967	0	1897.24
900	14.983	0	1897.01
901	15	0	1896.67
902	15.017	0	1896.33
903	15.033	0	1896.17
904	15.05	0	1895.74
905	15.067	0	1895.32
906	15.083	0	1894.62
907	15.1	0	1893.91
908	15.117	0	1893.43
909	15.133	0	1892.38
910	15.15	0	1891.56
911	15.167	0	1890.2
912	15.183	0	1889.22
913	15.2	0	1887.77
914	15.217	0	1885.87
915	15.233	0	1883.68
916	15.25	0	1881
917	15.267	0	1878.1
918	15.283	0	1874.34
919	15.3	0	1869.95
920	15.317	0	1864.74
921	15.333	0	1858.5
922	15.35	0	1851.19
923	15.367	0	1842.8
924	15.383	0	1832.95
925	15.4	0	1821.63
926	15.417	0	1808.94
927	15.433	0	1794.97
928	15.45	0	1779.81
929	15.467	0	1763.39
930	15.483	0	1746.2
931	15.5	0	1728.25
932	15.517	0	1709.92
933	15.533	0	1691.48
934	15.55	0	1672.6
935	15.567	0	1653.8
936	15.583	0	1634.77
937	15.6	0	1615.7
938	15.617	0	1596.44
939	15.633	0	1577.19
940	15.65	0	1558.01
941	15.667	0	1539.22
942	15.683	0	1520.61
943	15.7	0	1502.26
944	15.717	0	1484.32
945	15.733	0	1466.66
946	15.75	0	1449.37
947	15.767	0	1432.39
948	15.783	0	1415.55
949	15.8	0	1398.95
950	15.817	0	1382.66
951	15.833	0	1366.49
952	15.85	0	1350.92
953	15.867	1	1335.46
954	15.883	1	1320.64
955	15.9	1	1306.34
956	15.917	1	1292.27
957	15.933	1	1278.84
958	15.95	1	1266.08
959	15.967	1	1253.7
960	15.983	1	1241.99
961	16	1	1231.11
962	16.017	1	1221.01
963	16.033	1	1211.65
964	16.05	1	1203.02
965	16.067	1	1195.1
966	16.083	1	1187.87
967	16.1	1	1181.28
968	16.117	1	1175.36
969	16.133	1	1170.07
970	16.15	1	1165.4
971	16.167	1	1161.11
972	16.183	1	1157.25
973	16.2	1	1153.83
974	16.217	1	1150.69
975	16.233	1	1147.87
976	16.25	1	1145.41
977	16.267	1	1143.23
978	16.283	1	1141.2
979	16.3	1	1139.39
980	16.317	1	1137.81
981	16.333	1	1136.7
982	16.35	1	1135.54
983	16.367	1	1134.94
984	16.383	1	1134.44
985	16.4	1	1134.39
986	16.417	0	1134.5
987	16.433	0	1134.95
988	16.45	0	1135.52
989	16.467	0	1136.5
990	16.483	0	1137.49
991	16.5	0	1138.58
992	16.517	0	1139.92
993	16.533	0	1141.24
994	16.55	0	1142.59
995	16.567	0	1144
996	16.583	0	1145.48
997	16.6	0	1146.68
998	16.617	0	1148.21
999	16.633	0	1149.74
1000	16.65	0	1151.49
1001	16.667	0	1153.46
1002	16.683	0	1155.82
1003	16.7	0	1158.61
1004	16.717	0	1161.95
1005	16.733	0	1165.91
1006	16.75	0	1170.68
1007	16.767	0	1176
1008	16.783	0	1182.11
1009	16.8	0	1188.86
1010	16.817	0	1196.54
1011	16.833	0	1204.87
1012	16.85	0	1213.92
1013	16.867	0	1223.9
1014	16.883	0	1234.73
1015	16.9	0	1246.5
1016	16.917	0	1259.27
1017	16.933	0	1273.18
1018	16.95	0	1288.35
1019	16.967	0	1304.82
1020	16.983	0	1322.15
1021	17	0	1340.91
1022	17.017	0	1360.78
1023	17.033	0	1381.66
1024	17.05	0	1403.28
1025	17.067	0	1425.51
1026	17.083	0	1447.95
1027	17.1	0	1470.59
1028	17.117	0	1493.37
1029	17.133	0	1515.83
1030	17.15	0	1538.17
1031	17.167	0	1560.06
1032	17.183	0	1581.45
1033	17.2	0	1602.27
1034	17.217	0	1622.26
1035	17.233	0	1641.58
1036	17.25	0	1660.12
1037	17.267	0	1677.99
1038	17.283	0	1695.03
1039	17.3	0	1711.36
1040	17.317	0	1727.11
1041	17.333	0	1741.8
1042	17.35	0	1755.87
1043	17.367	0	1768.98
1044	17.383	0	1781.43
1045	17.4	0	1793.24
1046	17.417	0	1804.29
1047	17.433	0	1814.6
1048	17.45	0	1824.04
1049	17.467	0	1832.92
1050	17.483	0	1840.9
1051	17.5	0	1848.19
1052	17.517	0	1854.9
1053	17.533	0	1860.8
1054	17.55	0	1866.14
1055	17.567	0	1870.78
1056	17.583	0	1875.18
1057	17.6	0	1878.94
1058	17.617	0	1882.27
1059	17.633	0	1885.06
1060	17.65	0	1887.6
1061	17.667	0	1889.86
1062	17.683	0	1892.11
1063	17.7	0	1894.04
1064	17.717	0	1895.64
1065	17.733	0	1896.98
1066	17.75	0	1898.01
1067	17.767	0	1898.99
1068	17.783	0	1899.52
1069	17.8	0	1900.22
1070	17.817	0	1900.79
1071	17.833	0	1901.18
1072	17.85	0	1901.56
1073	17.867	0	1901.77
1074	17.883	0	1902.1
1075	17.9	0	1902.12
1076	17.917	0	1902.38
1077	17.933	0	1902.51
1078	17.95	0	1902.81
1079	17.967	0	1902.98
1080	17.983	0	1903.04
1081	18	0	1903.21
1082	18.017	0	1903.41
1083	18.033	0	1903.52
1084	18.05	0	1903.83
1085	18.067	0	1904.02
1086	18.083	0	1904.14
1087	18.1	0	1904.26
1088	18.117	0	1904.26
1089	18.133	0	1904.29
1090	18.15	0	1904.31
1091	18.167	0	1904.3
1092	18.183	0	1904.3
1093	18.2	0	1904.34
1094	18.217	0	1904.38
1095	18.233	0	1904.45
1096	18.25	0	1904.34
1097	18.267	0	1904.38
1098	18.283	0	1904.27
1099	18.3	0	1904.14
1100	18.317	0	1904.06
1101	18.333	0	1903.87
1102	18.35	0	1903.82
1103	18.367	0	1903.58
1104	18.383	0	1903.47
1105	18.4	0	1903.39
1106	18.417	0	1903.19
1107	18.433	0	1903.05
1108	18.45	0	1902.77
1109	18.467	0	1902.43
1110	18.483	0	1902.06
1111	18.5	0	1901.8
1112	18.517	0	1901.41
1113	18.533	0	1900.89
1114	18.55	0	1900.39
1115	18.567	0	1899.67
1116	18.583	0	1898.8
1117	18.6	0	1897.99
1118	18.617	0	1896.83
1119	18.633	0	1895.34
1120	18.65	0	1893.57
1121	18.667	0	1891.49
1122	18.683	0	1889.07
1123	18.7	0	1886
1124	18.717	0	1882.39
1125	18.733	0	1877.95
1126	18.75	0	1872.59
1127	18.767	0	1866.56
1128	18.783	0	1859.29
1129	18.8	0	1851.13
1130	18.817	0	1841.99
1131	18.833	0	1831.79
1132	18.85	0	1820.5
1133	18.867	0	1808.13
1134	18.883	0	1794.54
1135	18.9	0	1780.38
1136	18.917	0	1765.53
1137	18.933	0	1750.02
1138	18.95	0	1734.08
1139	18.967	0	1717.58
1140	18.983	0	1700.61
1141	19	0	1683.1
1142	19.017	0	1665.26
1143	19.033	0	1646.92
1144	19.05	0	1628.41
1145	19.067	0	1609.78
1146	19.083	0	1590.81
1147	19.1	0	1571.75
1148	19.117	0	1552.64
1149	19.133	0	1533.77
1150	19.15	0	1515.19
1151	19.167	0	1496.84
1152	19.183	0	1478.88
1153	19.2	0	1461.33
1154	19.217	0	1444.08
1155	19.233	0	1427.36
1156	19.25	0	1411.07
1157	19.267	0	1395.19
1158	19.283	0	1379.9
1159	19.3	0	1365.12
1160	19.317	0	1350.82
1161	19.333	1	1337.16
1162	19.35	1	1323.89
1163	19.367	1	1311.12
1164	19.383	1	1298.61
1165	19.4	1	1286.82
1166	19.417	1	1275.26
1167	19.433	1	1264.22
1168	19.45	1	1253.6
1169	19.467	1	1243.56
1170	19.483	1	1234.12
1171	19.5	1	1225.32
1172	19.517	1	1217.05
1173	19.533	1	1209.53
1174	19.55	1	1202.71
1175	19.567	1	1196.54
1176	19.583	1	1190.94
1177	19.6	1	1186.07
1178	19.617	1	1181.79
1179	19.633	1	1177.97
1180	19.65	1	1174.92
1181	19.667	1	1172.36
1182	19.683	1	1170.58
1183	19.7	1	1169.15
1184	19.717	1	1168.4
1185	19.733	1	1168.06
1186	19.75	1	1168
1187	19.767	0	1168.4
1188	19.783	0	1168.92
1189	19.8	0	1169.56
1190	19.817	0	1170.37
1191	19.833	0	1171.14
1192	19.85	0	1171.9
1193	19.867	0	1172.49
1194	19.883	0	1173.1
1195	19.9	0	1173.47
1196	19.917	0	1173.95
1197	19.933	0	1174.26
1198	19.95	0	1174.37
1199	19.967	0	1174.53
1200	19.983	0	1174.73
1201	20	0	1174.97
1202	20.017	0	1175.19
1203	20.033	0	1175.66
1204	20.05	0	1176.2
1205	20.067	0	1177.05
1206	20.083	0	1178.14
1207	20.1	0	1179.45
1208	20.117	0	1181.18
1209	20.133	0	1183.29
1210	20.15	0	1186.04
1211	20.167	0	1189.24
1212	20.183	0	1193.2
1213	20.2	0	1197.56
1214	20.217	0	1202.81
1215	20.233	0	1208.48
1216	20.25	0	1214.88
1217	20.267	0	1221.85
1218	20.283	0	1229.56
1219	20.3	0	1237.69
1220	20.317	0	1246.43
1221	20.333	0	1255.59
1222	20.35	0	1265.57
1223	20.367	0	1275.65
1224	20.383	0	1286.24
1225	20.4	0	1297.03
1226	20.417	0	1308.2
1227	20.433	0	1319.55
1228	20.45	0	1330.88
1229	20.467	0	1342.62
1230	20.483	0	1354.52
1231	20.5	0	1366.69
1232	20.517	0	1379.41
1233	20.533	0	1392.53
1234	20.55	0	1406.24
1235	20.567	0	1420.63
1236	20.583	0	1435.69
1237	20.6	0	1451.64
1238	20.617	0	1468.27
1239	20.633	0	1485.92
1240	20.65	0	1504.37
1241	20.667	0	1523.47
1242	20.683	0	1543.37
1243	20.7	0	1563.61
1244	20.717	0	1583.9
1245	20.733	0	1604.17
1246	20.75	0	1624.07
1247	20.767	0	1643.41
1248	20.783	0	1662.1
1249	20.8	0	1680.14
1250	20.817	0	1697.51
1251	20.833	0	1713.89
1252	20.85	0	1729.79
1253	20.867	0	1744.88
1254	20.883	0	1759.05
1255	20.9	0	1772.38
1256	20.917	0	1784.96
1257	20.933	0	1796.7
1258	20.95	0	1807.67
1259	20.967	0	1817.78
1260	20.983	0	1827.04
1261	21	0	1835.71
1262	21.017	0	1843.39
1263	21.033	0	1850.36
1264	21.05	0	1856.77
1265	21.067	0	1862.27
1266	21.083	0	1867.27
1267	21.1	0	1871.62
1268	21.117	0	1875.44
1269	21.133	0	1878.93
1270	21.15	0	1881.85
1271	21.167	0	1884.5
1272	21.183	0	1886.79
1273	21.2	0	1888.91
1274	21.217	0	1890.87
1275	21.233	0	1892.52
1276	21.25	0	1893.96
1277	21.267	0	1895.27
1278	21.283	0	1896.35
1279	21.3	0	1897.57
1280	21.317	0	1898.43
1281	21.333	0	1899.37
1282	21.35	0	1900.06
1283	21.367	0	1900.69
1284	21.383	0	1901.28
1285	21.4	0	1901.5
1286	21.417	0	1901.89
1287	21.433	0	1902.15
1288	21.45	0	1902.32
1289	21.467	0	1902.47
1290	21.483	0	1902.56
1291	21.5	0	1902.52
1292	21.517	0	1902.57
1293	21.533	0	1902.65
1294	21.55	0	1902.79
1295	21.567	0	1902.75
1296	21.583	0	1902.82
1297	21.6	0	1902.91
1298	21.617	0	1903.11
1299	21.633	0	1903.11
1300	21.65	0	1903.18
1301	21.667	0	1903.26
1302	21.683	0	1903.16
1303	21.7	0	1903.12
1304	21.717	0	1903.22
1305	21.733	0	1903.19
1306	21.75	0	1903.07
1307	21.767	0	1903.08
1308	21.783	0	1903.16
1309	21.8	0	1903.13
1310	21.817	0	1903.1
1311	21.833	0	1902.94
1312	21.85	0	1902.84
1313	21.867	0	1902.79
1314	21.883	0	1902.79
1315	21.9	0	1902.8
1316	21.917	0	1902.7
1317	21.933	0	1902.68
1318	21.95	0	1902.55
1319	21.967	0	1902.43
1320	21.983	0	1902.29
1321	22	0	1902.17
1322	22.017	0	1901.97
1323	22.033	0	1901.51
1324	22.05	0	1900.9
1325	22.067	0	1900.08
1326	22.083	0	1899.06
1327	22.1	0	1897.76
1328	22.117	0	1895.8
1329	22.133	0	1893.48
1330	22.15	0	1890.69
1331	22.167	0	1887.08
1332	22.183	0	1883
1333	22.2	0	1878.04
1334	22.217	0	1872.53
1335	22.233	0	1865.93
1336	22.25	0	1858.4
1337	22.267	0	1849.75
1338	22.283	0	1840.44
1339	22.3	0	1830.06
1340	22.317	0	1818.76
1341	22.333	0	1806.33
1342	22.35	0	1793.82
1343	22.367	0	1780.22
1344	22.383	0	1765.75
1345	22.4	0	1750.79
1346	22.417	0	1734.97
1347	22.433	0	1718.53
1348	22.45	0	1701.38
1349	22.467	0	1683.85
1350	22.483	0	1666.01
1351	22.5	0	1647.7
1352	22.517	0	1629.25
1353	22.533	0	1610.49
1354	22.55	0	1591.49
1355	22.567	0	1572.36
1356	22.583	0	1553.03
1357	22.6	0	1533.58
1358	22.617	0	1514.07
1359	22.633	0	1494.49
1360	22.65	0	1474.98
1361	22.667	0	1455.61
1362	22.683	0	1436.58
1363	22.7	0	1417.69
1364	22.717	0	1399.3
1365	22.733	0	1381.28
1366	22.75	0	1363.44
1367	22.767	0	1346.17
1368	22.783	1	1329.32
1369	22.8	1	1313.06
1370	22.817	1	1297.17
1371	22.833	1	1281.84
1372	22.85	1	1266.84
1373	22.867	1	1252.48
1374	22.883	1	1238.54
1375	22.9	1	1225.29
1376	22.917	1	1212.55
1377	22.933	1	1200.57
1378	22.95	1	1189.39
1379	22.967	1	1178.97
1380	22.983	1	1169.62
1381	23	1	1161.24
1382	23.017	1	1153.65
1383	23.033	1	1147.25
1384	23.05	1	1141.71
1385	23.067	1	1137.15
1386	23.083	1	1133.09
1387	23.1	1	1130.01
1388	23.117	1	1127.42
1389	23.133	1	1125.42
1390	23.15	1	1123.69
1391	23.167	1	1122.43
1392	23.183	1	1121.46
1393	23.2	1	1120.49
1394	23.217	1	1119.88
1395	23.233	1	1119.21
1396	23.25	1	1118.42
1397	23.267	1	1118.02
1398	23.283	1	1117.26
1399	23.3	1	1116.75
1400	23.317	1	1116.22
1401	23.333	1	1115.8
1402	23.35	1	1115.36
1403	23.367	1	1115.1
1404	23.383	1	1114.88
1405	23.4	1	1114.72
1406	23.417	1	1114.71
1407	23.433	0	1114.81
1408	23.45	0	1115
1409	23.467	0	1115.24
1410	23.483	0	1115.52
1411	23.5	0	1116.11
1412	23.517	0	1116.48
1413	23.533	0	1116.86
1414	23.55	0	1117.42
1415	23.567	0	1117.84
1416	23.583	0	1118.21
1417	23.6	0	1118.51
1418	23.617	0	1118.84
1419	23.633	0	1119.04
1420	23.65	0	1119.2
1421	23.667	0	1119.4
1422	23.683	0	1119.54
1423	23.7	0	1119.73
1424	23.717	0	1120.06
1425	23.733	0	1120.73
1426	23.75	0	1121.41
1427	23.767	0	1122.63
1428	23.783	0	1124.15
1429	23.8	0	1126.02
1430	23.817	0	1128.53
1431	23.833	0	1131.55
1432	23.85	0	1135.12
1433	23.867	0	1139.33
1434	23.883	0	1144.08
1435	23.9	0	1149.63
1436	23.917	0	1155.66
1437	23.933	0	1162.42
1438	23.95	0	1169.9
1439	23.967	0	1177.95
1440	23.983	0	1186.74
1441	24	0	1196.45
1442	24.017	0	1207.01
1443	24.033	0	1218.38
1444	24.05	0	1230.88
1445	24.067	0	1244.51
1446	24.083	0	1259.26
1447	24.1	0	1275.51
1448	24.117	0	1293.04
1449	24.133	0	1311.81
1450	24.15	0	1331.71
1451	24.167	0	1352.79
1452	24.183	0	1374.95
1453	24.2	0	1397.94
1454	24.217	0	1421.83
1455	24.233	0	1446.18
1456	24.25	0	1470.95
1457	24.267	0	1495.8
1458	24.283	0	1520.63
1459	24.3	0	1545.06
1460	24.317	0	1568.88
1461	24.333	0	1592.09
1462	24.35	0	1614.44
1463	24.367	0	1635.83
1464	24.383	0	1656.28
1465	24.4	0	1675.9
1466	24.417	0	1694.33
1467	24.433	0	1711.76
1468	24.45	0	1728.05
1469	24.467	0	1743.36
1470	24.483	0	1757.62
1471	24.5	0	1771.14
1472	24.517	0	1783.88
1473	24.533	0	1795.61
1474	24.55	0	1806.57
1475	24.567	0	1816.81
1476	24.583	0	1826.09
1477	24.6	0	1834.8
1478	24.617	0	1842.67
1479	24.633	0	1849.69
1480	24.65	0	1855.99
1481	24.667	0	1861.69
1482	24.683	0	1866.73
1483	24.7	0	1871.31
1484	24.717	0	1875.17
1485	24.733	0	1878.67
1486	24.75	0	1881.64
1487	24.767	0	1884.24
1488	24.783	0	1886.44
1489	24.8	0	1888.24
1490	24.817	0	1889.92
1491	24.833	0	1891.45
1492	24.85	0	1892.61
1493	24.867	0	1893.59
1494	24.883	0	1894.61
1495	24.9	0	1895.18
1496	24.917	0	1895.81
1497	24.933	0	1896.43
1498	24.95	0	1896.59
1499	24.967	0	1896.97
1500	24.983	0	1897.31
1501	25	0	1897.55
1502	25.017	0	1898.03
1503	25.033	0	1898.31
1504	25.05	0	1898.61
1505	25.067	0	1898.89
1506	25.083	0	1899.18
1507	25.1	0	1899.34
1508	25.117	0	1899.62
1509	25.133	0	1899.74
1510	25.15	0	1899.98
1511	25.167	0	1900.16
1512	25.183	0	1900.5
1513	25.2	0	1900.75
1514	25.217	0	1900.96
1515	25.233	0	1901.1
1516	25.25	0	1901.45
1517	25.267	0	1901.54
1518	25.283	0	1901.67
1519	25.3	0	1901.88
1520	25.317	0	1902.11
1521	25.333	0	1902.08
1522	25.35	0	1902.1
1523	25.367	0	1902.03
1524	25.383	0	1901.95
1525	25.4	0	1901.7
1526	25.417	0	1901.38
1527	25.433	0	1901.12
1528	25.45	0	1900.8
1529	25.467	0	1900.07
1530	25.483	0	1899.61
1531	25.5	0	1898.79
1532	25.517	0	1897.92
1533	25.533	0	1896.71
1534	25.55	0	1895.01
1535	25.567	0	1892.83
1536	25.583	0	1890.34
1537	25.6	0	1886.98
1538	25.617	0	1883.09
1539	25.633	0	1878.33
1540	25.65	0	1872.81
1541	25.667	0	1866.17
1542	25.683	0	1858.52
1543	25.7	0	1849.52
1544	25.717	0	1839.45
1545	25.733	0	1828.08
1546	25.75	0	1815.49
1547	25.767	0	1801.25
1548	25.783	0	1785.77
1549	25.8	0	1769.82
1550	25.817	0	1752.24
1551	25.833	0	1734.12
1552	25.85	0	1715.23
1553	25.867	0	1695.9
1554	25.883	0	1675.95
1555	25.9	0	1655.74
1556	25.917	0	1635.22
1557	25.933	0	1614.53
1558	25.95	0	1593.74
1559	25.967	0	1572.76
1560	25.983	0	1551.72
1561	26	0	1530.72
1562	26.017	0	1509.58
1563	26.033	0	1488.52
1564	26.05	0	1467.51
1565	26.067	0	1446.59
1566	26.083	0	1425.88
1567	26.1	0	1405.55
1568	26.117	0	1385.72
1569	26.133	0	1366.36
1570	26.15	0	1347.59
1571	26.167	1	1329.53
1572	26.183	1	1312.48
1573	26.2	1	1295.88
1574	26.217	1	1280.26
1575	26.233	1	1265.44
1576	26.25	1	1251.27
1577	26.267	1	1237.98
1578	26.283	1	1225.34
1579	26.3	1	1213.28
1580	26.317	1	1202.07
1581	26.333	1	1191.5
1582	26.35	1	1181.6
1583	26.367	1	1172.44
1584	26.383	1	1163.63
1585	26.4	1	1155.39
1586	26.417	1	1147.53
1587	26.433	1	1140.29
1588	26.45	1	1133.55
1589	26.467	1	1127.37
1590	26.483	1	1121.67
1591	26.5	1	1116.58
1592	26.517	1	1111.97
1593	26.533	1	1108.03
1594	26.55	1	1104.59
1595	26.567	1	1101.74
1596	26.583	1	1099.51
1597	26.6	1	1097.94
1598	26.617	1	1096.75
1599	26.633	1	1096.17
1600	26.65	1	1096.03
1601	26.667	0	1096.24
1602	26.683	0	1096.91
1603	26.7	0	1097.73
1604	26.717	0	1098.43
1605	26.733	0	1099.48
1606	26.75	0	1100.22
1607	26.767	0	1100.96
1608	26.783	0	1101.63
1609	26.8	0	1102.15
1610	26.817	0	1102.27
1611	26.833	0	1102.35
1612	26.85	1	1101.96
1613	26.867	1	1101.57
1614	26.883	1	1101
1615	26.9	1	1100.37
1616	26.917	1	1099.49
1617	26.933	1	1098.63
1618	26.95	1	1097.65
1619	26.967	1	1096.81
1620	26.983	1	1095.79
1621	27	1	1095.07
1622	27.017	1	1094.21
1623	27.033	1	1093.62
1624	27.05	1	1093.21
1625	27.067	1	1093.11
1626	27.083	0	1093.16
1627	27.1	0	1093.64
1628	27.117	0	1094.44
1629	27.133	0	1095.47
1630	27.15	0	1097.07
1631	27.167	0	1098.77
1632	27.183	0	1101.12
1633	27.2	0	1103.81
1634	27.217	0	1107.11
1635	27.233	0	1110.91
1636	27.25	0	1115.18
1637	27.267	0	1120.26
1638	27.283	0	1126.09
1639	27.3	0	1132.55
1640	27.317	0	1139.84
1641	27.333	0	1148.21
1642	27.35	0	1157.48
1643	27.367	0	1167.68
1644	27.383	0	1178.97
1645	27.4	0	1191.2
1646	27.417	0	1204.25
1647	27.433	0	1218.43
1648	27.45	0	1233.18
1649	27.467	0	1248.87
1650	27.483	0	1265.25
1651	27.5	0	1282.21
1652	27.517	0	1299.72
1653	27.533	0	1317.64
1654	27.55	0	1336.06
1655	27.567	0	1354.68
1656	27.583	0	1373.6
1657	27.6	0	1392.68
1658	27.617	0	1411.64
1659	27.633	0	1430.82
1660	27.65	0	1450.19
1661	27.667	0	1469.66
1662	27.683	0	1489.19
1663	27.7	0	1508.77
1664	27.717	0	1528.21
1665	27.733	0	1547.67
1666	27.75	0	1567.02
1667	27.767	0	1586.12
1668	27.783	0	1604.95
1669	27.8	0	1623.29
1670	27.817	0	1641.29
1671	27.833	0	1658.77
1672	27.85	0	1675.66
1673	27.867	0	1692.01
1674	27.883	0	1707.71
1675	27.9	0	1722.64
1676	27.917	0	1736.94
1677	27.933	0	1750.5
1678	27.95	0	1763.34
1679	27.967	0	1775.37
1680	27.983	0	1786.7
1681	28	0	1797.15
1682	28.017	0	1806.88
1683	28.033	0	1815.86
1684	28.05	0	1824.1
1685	28.067	0	1831.66
1686	28.083	0	1838.55
1687	28.1	0	1844.78
1688	28.117	0	1850.5
1689	28.133	0	1855.56
1690	28.15	0	1860.19
1691	28.167	0	1864.26
1692	28.183	0	1868
1693	28.2	0	1871.29
1694	28.217	0	1874.16
1695	28.233	0	1877.03
1696	28.25	0	1879.38
1697	28.267	0	1881.38
1698	28.283	0	1883.6
1699	28.3	0	1885.38
1700	28.317	0	1886.96
1701	28.333	0	1888.25
1702	28.35	0	1889.51
1703	28.367	0	1890.5
1704	28.383	0	1891.28
1705	28.4	0	1892.13
1706	28.417	0	1892.7
1707	28.433	0	1893.12
1708	28.45	0	1893.63
1709	28.467	0	1893.97
1710	28.483	0	1894.17
1711	28.5	0	1894.36
1712	28.517	0	1894.44
1713	28.533	0	1894.56
1714	28.55	0	1894.62
1715	28.567	0	1894.73
1716	28.583	0	1894.92
1717	28.6	0	1894.98
1718	28.617	0	1894.96
1719	28.633	0	1895.05
1720	28.65	0	1895.31
1721	28.667	0	1895.36
1722	28.683	0	1895.28
1723	28.7	0	1895.16
1724	28.717	0	1894.99
1725	28.733	0	1894.88
1726	28.75	0	1894.52
1727	28.767	0	1894.13
1728	28.783	0	1893.75
1729	28.8	0	1893.01
1730	28.817	0	1892.47
1731	28.833	0	1891.48
1732	28.85	0	1890.66
1733	28.867	0	1889.43
1734	28.883	0	1887.86
1735	28.9	0	1886.21
1736	28.917	0	1884.33
1737	28.933	0	1882.04
1738	28.95	0	1879.13
1739	28.967	0	1875.85
1740	28.983	0	1872.1
1741	29	0	1867.68
1742	29.017	0	1862.42
1743	29.033	0	1856.48
1744	29.05	0	1849.51
1745	29.067	0	1841.75
1746	29.083	0	1833.08
1747	29.1	0	1822.99
1748	29.117	0	1811.7
1749	29.133	0	1799.07
1750	29.15	0	1785.52
1751	29.167	0	1770.71
1752	29.183	0	1754.92
1753	29.2	0	1737.79
1754	29.217	0	1719.86
1755	29.233	0	1701.32
1756	29.25	0	1682.1
1757	29.267	0	1662.53
1758	29.283	0	1642.55
1759	29.3	0	1622.25
1760	29.317	0	1601.75
1761	29.333	0	1581.09
1762	29.35	0	1560.3
1763	29.367	0	1539.56
1764	29.383	0	1519.03
1765	29.4	0	1498.85
1766	29.417	0	1478.84
1767	29.433	0	1459.06
1768	29.45	0	1439.55
1769	29.467	0	1420.26
1770	29.483	0	1401.08
1771	29.5	0	1382.27
1772	29.517	0	1363.26
1773	29.533	0	1344.67
1774	29.55	1	1326.02
1775	29.567	1	1307.77
1776	29.583	1	1289.7
1777	29.6	1	1271.84
1778	29.617	1	1254.66
1779	29.633	1	1237.91
1780	29.65	1	1221.79
1781	29.667	1	1206.2
1782	29.683	1	1191.48
1783	29.7	1	1177.55
1784	29.717	1	1164.62
1785	29.733	1	1152.61
1786	29.75	1	1141.73
1787	29.767	1	1132.05
1788	29.783	1	1123.22
1789	29.8	1	1115.81
1790	29.817	1	1109.4
1791	29.833	1	1104.11
1792	29.85	1	1099.78
1793	29.867	1	1096.54
1794	29.883	1	1094.24
1795	29.9	1	1092.52
1796	29.917	1	1091.49
1797	29.933	1	1090.92
1798	29.95	1	1090.84
1799	29.967	0	1090.97
1800	29.983	0	1091.33
1801	30	0	1091.97
1802	30.017	0	1092.53
1803	30.033	0	1093.27
1804	30.05	0	1094.2
1805	30.067	0	1095.21
1806	30.083	0	1096.26
1807	30.1	0	1097.45
1808	30.117	0	1098.46
1809	30.133	0	1099.41
1810	30.15	0	1100.43
1811	30.167	0	1101.17
1812	30.183	0	1101.79
1813	30.2	0	1102.31
1814	30.217	0	1102.58
1815	30.233	0	1102.8
1816	30.25	0	1102.91
1817	30.267	1	1102.63
1818	30.283	1	1102.38
1819	30.3	1	1102.22
1820	30.317	1	1101.76
1821	30.333	1	1101.32
1822	30.35	1	1100.9
1823	30.367	1	1100.56
1824	30.383	1	1100.25
1825	30.4	1	1099.9
1826	30.417	1	1099.59
1827	30.433	1	1099.2
1828	30.45	1	1098.99
1829	30.467	1	1098.63
1830	30.483	1	1098.37
1831	30.5	1	1098.18
1832	30.517	1	1097.96
1833	30.533	1	1097.72
1834	30.55	1	1097.54
1835	30.567	1	1097.47
1836	30.583	1	1097.34
1837	30.6	0	1097.36
1838	30.617	0	1097.4
1839	30.633	0	1097.48
1840	30.65	0	1097.52
1841	30.667	0	1097.74
1842	30.683	0	1098.01
1843	30.7	0	1098.31
1844	30.717	0	1098.69
1845	30.733	0	1099.08
1846	30.75	0	1099.59
1847	30.767	0	1100.12
1848	30.783	0	1100.74
1849	30.8	0	1101.35
1850	30.817	0	1102.1
1851	30.833	0	1102.74
1852	30.85	0	1103.56
1853	30.867	0	1104.41
1854	30.883	0	1105.32
1855	30.9	0	1106.49
1856	30.917	0	1107.88
1857	30.933	0	1109.51
1858	30.95	0	1111.44
1859	30.967	0	1114.04
1860	30.983	0	1117.03
1861	31	0	1121
1862	31.017	0	1125.91
1863	31.033	0	1131.9
1864	31.05	0	1139.18
1865	31.067	0	1147.97
1866	31.083	0	1158.37
1867	31.1	0	1170.43
1868	31.117	0	1184.51
1869	31.133	0	1200.29
1870	31.15	0	1217.98
1871	31.167	0	1237.51
1872	31.183	0	1258.55
1873	31.2	0	1281.16
1874	31.217	0	1305.09
1875	31.233	0	1329.89
1876	31.25	0	1355.7
1877	31.267	0	1382.06
1878	31.283	0	1409.07
1879	31.3	0	1436.04
1880	31.317	0	1463.08
1881	31.333	0	1490.03
1882	31.35	0	1516.71
1883	31.367	0	1542.86
1884	31.383	0	1568.54
1885	31.4	0	1593.3
1886	31.417	0	1617.18
1887	31.433	0	1640.1
1888	31.45	0	1661.91
1889	31.467	0	1682.67
1890	31.483	0	1702.22
1891	31.5	0	1720.45
1892	31.517	0	1737.8
1893	31.533	0	1753.87
1894	31.55	0	1769.09
1895	31.567	0	1783.01
1896	31.583	0	1795.93
1897	31.6	0	1807.89
1898	31.617	0	1818.91
1899	31.633	0	1828.98
1900	31.65	0	1838.17
1901	31.667	0	1846.33
1902	31.683	0	1853.72
1903	31.7	0	1860.47
1904	31.717	0	1866.54
1905	31.733	0	1871.73
1906	31.75	0	1876.42
1907	31.767	0	1880.54
1908	31.783	0	1884.22
1909	31.8	0	1887.56
1910	31.817	0	1890.28
1911	31.833	0	1892.65
1912	31.85	0	1894.77
1913	31.867	0	1896.48
1914	31.883	0	1897.99
1915	31.9	0	1899.37
1916	31.917	0	1900.51
1917	31.933	0	1901.32
1918	31.95	0	1902.23
1919	31.967	0	1902.96
1920	31.983	0	1903.6
1921	32	0	1904.35
1922	32.017	0	1904.6
1923	32.033	0	1905.03
1924	32.05	0	1905.39
1925	32.067	0	1905.67
1926	32.083	0	1905.98
1927	32.1	0	1906.13
1928	32.117	0	1906.23
1929	32.133	0	1906.28
1930	32.15	0	1906.27
1931	32.167	0	1906.24
1932	32.183	0	1906.22
1933	32.2	0	1906.25
1934	32.217	0	1906.25
1935	32.233	0	1906.18
1936	32.25	0	1906.21
1937	32.267	0	1905.93
1938	32.283	0	1905.83
1939	32.3	0	1905.8
1940	32.317	0	1905.75
1941	32.333	0	1905.6
1942	32.35	0	1905.5
1943	32.367	0	1905.43
1944	32.383	0	1905.3
1945	32.4	0	1905.11
1946	32.417	0	1904.95
1947	32.433	0	1904.89
1948	32.45	0	1904.87
1949	32.467	0	1904.73
1950	32.483	0	1904.81
1951	32.5	0	1904.94
1952	32.517	0	1904.93
1953	32.533	0	1904.96
1954	32.55	0	1905.03
1955	32.567	0	1904.98
1956	32.583	0	1904.97
1957	32.6	0	1904.67
1958	32.617	0	1904.29
1959	32.633	0	1903.62
1960	32.65	0	1902.93
1961	32.667	0	1901.74
1962	32.683	0	1900.32
1963	32.7	0	1898.47
1964	32.717	0	1896.08
1965	32.733	0	1892.94
1966	32.75	0	1889.14
1967	32.767	0	1884.46
1968	32.783	0	1878.51
1969	32.8	0	1871.62
1970	32.817	0	1863.27
1971	32.833	0	1853.52
1972	32.85	0	1842.04
1973	32.867	0	1828.85
1974	32.883	0	1813.68
1975	32.9	0	1796.17
1976	32.917	0	1777.91
1977	32.933	0	1757.47
1978	32.95	0	1735.69
1979	32.967	0	1712.64
1980	32.983	0	1689
1981	33	0	1664.77
1982	33.017	0	1640.3
1983	33.033	0	1615.59
1984	33.05	0	1590.53
1985	33.067	0	1565.54
1986	33.083	0	1540.62
1987	33.1	0	1515.82
1988	33.117	0	1491.27
1989	33.133	0	1466.95
1990	33.15	0	1443.01
1991	33.167	0	1419.48
1992	33.183	0	1396.71
1993	33.2	0	1374.09
1994	33.217	0	1352.38
1995	33.233	1	1331.63
1996	33.25	1	1311.62
1997	33.267	1	1292.83
1998	33.283	1	1274.84
1999	33.3	1	1257.84
2000	33.317	1	1241.71
2001	33.333	1	1226.21
2002	33.35	1	1211.67
2003	33.367	1	1197.85
2004	33.383	1	1184.69
2005	33.4	1	1172.4
2006	33.417	1	1160.91
2007	33.433	1	1150.33
2008	33.45	1	1140.39
2009	33.467	1	1131.39
2010	33.483	1	1123.1
2011	33.5	1	1115.5
2012	33.517	1	1108.77
2013	33.533	1	1102.41
2014	33.55	1	1096.77
2015	33.567	1	1091.52
2016	33.583	1	1087.07
2017	33.6	1	1082.98
2018	33.617	1	1079.34
2019	33.633	1	1076.4
2020	33.65	1	1073.88
2021	33.667	1	1071.77
2022	33.683	1	1070.27
2023	33.7	1	1069.16
2024	33.717	1	1068.51
2025	33.733	1	1068.16
2026	33.75	0	1068.25
2027	33.767	0	1068.42
2028	33.783	0	1068.9
2029	33.8	0	1069.38
2030	33.817	0	1069.9
2031	33.833	0	1070.37
2032	33.85	0	1070.98
2033	33.867	0	1071.56
2034	33.883	0	1071.89
2035	33.9	0	1072.11
2036	33.917	0	1072.25
2037	33.933	0	1072.29
2038	33.95	1	1072.06
2039	33.967	1	1071.9
2040	33.983	1	1071.47
2041	34	1	1070.99
2042	34.017	1	1070.4
2043	34.033	1	1069.78
2044	34.05	1	1069.19
2045	34.067	1	1068.53
2046	34.083	1	1067.99
2047	34.1	1	1067.53
2048	34.117	1	1067.15
2049	34.133	1	1066.94
2050	34.15	1	1066.85
2051	34.167	0	1066.95
2052	34.183	0	1067.11
2053	34.2	0	1067.61
2054	34.217	0	1068.14
2055	34.233	0	1068.69
2056	34.25	0	1069.69
2057	34.267	0	1070.71
2058	34.283	0	1071.95
2059	34.3	0	1073.29
2060	34.317	0	1074.97
2061	34.333	0	1076.89
2062	34.35	0	1079.11
2063	34.367	0	1081.77
2064	34.383	0	1084.68
2065	34.4	0	1088.16
2066	34.417	0	1092.01
2067	34.433	0	1096.2
2068	34.45	0	1100.87
2069	34.467	0	1105.96
2070	34.483	0	1111.64
2071	34.5	0	1117.56
2072	34.517	0	1124.01
2073	34.533	0	1130.99
2074	34.55	0	1138.23
2075	34.567	0	1146.11
2076	34.583	0	1154.35
2077	34.6	0	1163.31
2078	34.617	0	1172.9
2079	34.633	0	1183.22
2080	34.65	0	1194.39
2081	34.667	0	1206.67
2082	34.683	0	1220.1
2083	34.7	0	1234.77
2084	34.717	0	1250.67
2085	34.733	0	1267.98
2086	34.75	0	1286.8
2087	34.767	0	1306.72
2088	34.783	0	1328.11
2089	34.8	0	1350.41
2090	34.817	0	1373.88
2091	34.833	0	1398.34
2092	34.85	0	1423.5
2093	34.867	0	1449.41
2094	34.883	0	1475.7
2095	34.9	0	1502.36
2096	34.917	0	1529.07
2097	34.933	0	1555.59
2098	34.95	0	1581.9
2099	34.967	0	1607.4
2100	34.983	0	1632.16
2101	35	0	1655.89
2102	35.017	0	1678.52
2103	35.033	0	1699.89
2104	35.05	0	1720.1
2105	35.067	0	1738.85
2106	35.083	0	1756.04
2107	35.1	0	1772.17
2108	35.117	0	1787.03
2109	35.133	0	1800.51
2110	35.15	0	1813.03
2111	35.167	0	1824.08
2112	35.183	0	1834.13
2113	35.2	0	1843.12
2114	35.217	0	1851.24
2115	35.233	0	1858.57
2116	35.25	0	1864.87
2117	35.267	0	1870.54
2118	35.283	0	1875.5
2119	35.3	0	1879.65
2120	35.317	0	1883.22
2121	35.333	0	1886.26
2122	35.35	0	1888.87
2123	35.367	0	1891.02
2124	35.383	0	1893.04
2125	35.4	0	1894.78
2126	35.417	0	1896.17
2127	35.433	0	1897.79
2128	35.45	0	1898.75
2129	35.467	0	1899.95
2130	35.483	0	1900.87
2131	35.5	0	1901.9
2132	35.517	0	1902.72
2133	35.533	0	1903.25
2134	35.55	0	1903.96
2135	35.567	0	1904.7
2136	35.583	0	1905.01
2137	35.6	0	1905.36
2138	35.617	0	1905.64
2139	35.633	0	1905.83
2140	35.65	0	1906.14
2141	35.667	0	1906.21
2142	35.683	0	1906.37
2143	35.7	0	1906.4
2144	35.717	0	1906.43
2145	35.733	0	1906.36
2146	35.75	0	1906.38
2147	35.767	0	1906.48
2148	35.783	0	1906.53
2149	35.8	0	1906.39
2150	35.817	0	1906.38
2151	35.833	0	1906.28
2152	35.85	0	1906.32
2153	35.867	0	1906.3
2154	35.883	0	1906.39
2155	35.9	0	1906.59
2156	35.917	0	1906.61
2157	35.933	0	1906.79
2158	35.95	0	1906.91
2159	35.967	0	1907.04
2160	35.983	0	1907.23
2161	36	0	1907.16
2162	36.017	0	1907.15
2163	36.033	0	1907.25
2164	36.05	0	1907.2
2165	36.067	0	1907.11
2166	36.083	0	1906.95
2167	36.1	0	1906.48
2168	36.117	0	1906.21
2169	36.133	0	1905.62
2170	36.15	0	1904.71
2171	36.167	0	1903.67
2172	36.183	0	1902.23
2173	36.2	0	1900.14
2174	36.217	0	1897.27
2175	36.233	0	1894.04
2176	36.25	0	1889.57
2177	36.267	0	1884.13
2178	36.283	0	1877.39
2179	36.3	0	1869.37
2180	36.317	0	1859.86
2181	36.333	0	1849
2182	36.35	0	1836.91
2183	36.367	0	1823.24
2184	36.383	0	1808.21
2185	36.4	0	1792.01
2186	36.417	0	1774.43
2187	36.433	0	1756.12
2188	36.45	0	1736.58
2189	36.467	0	1716.14
2190	36.483	0	1694.7
2191	36.5	0	1672.77
2192	36.517	0	1650.06
2193	36.533	0	1626.62
2194	36.55	0	1602.69
2195	36.567	0	1577.88
2196	36.583	0	1552.7
2197	36.6	0	1527.15
2198	36.617	0	1501.43
2199	36.633	0	1475.8
2200	36.65	0	1450.23
2201	36.667	0	1424.63
2202	36.683	0	1399.49
2203	36.7	0	1374.87
2204	36.717	0	1350.73
2205	36.733	1	1327.36
2206	36.75	1	1304.51
2207	36.767	1	1282.36
2208	36.783	1	1260.86
2209	36.8	1	1240.33
2210	36.817	1	1220.96
2211	36.833	1	1202.66
2212	36.85	1	1185.79
2213	36.867	1	1169.91
2214	36.883	1	1155.46
2215	36.9	1	1142.23
2216	36.917	1	1130.17
2217	36.933	1	1119.33
2218	36.95	1	1109.68
2219	36.967	1	1101.19
2220	36.983	1	1093.97
2221	37	1	1087.76
2222	37.017	1	1082.67
2223	37.033	1	1078.56
2224	37.05	1	1075.63
2225	37.067	1	1073.66
2226	37.083	1	1072.51
2227	37.1	1	1072.26
2228	37.117	0	1072.62
2229	37.133	0	1073.54
2230	37.15	0	1075.03
2231	37.167	0	1076.58
2232	37.183	0	1078.61
2233	37.2	0	1080.67
2234	37.217	0	1082.92
2235	37.233	0	1085.14
2236	37.25	0	1087.06
2237	37.267	0	1089.05
2238	37.283	0	1090.75
2239	37.3	0	1092.13
2240	37.317	0	1093.18
2241	37.333	0	1093.99
2242	37.35	0	1094.38
2243	37.367	0	1094.42
2244	37.383	1	1094.23
2245	37.4	1	1093.52
2246	37.417	1	1092.59
2247	37.433	1	1091.33
2248	37.45	1	1089.87
2249	37.467	1	1088.12
2250	37.483	1	1086.47
2251	37.5	1	1084.74
2252	37.517	1	1082.97
2253	37.533	1	1081.19
2254	37.55	1	1079.52
2255	37.567	1	1077.99
2256	37.583	1	1076.68
2257	37.6	1	1075.61
2258	37.617	1	1074.69
2259	37.633	1	1073.88
2260	37.65	1	1073.28
2261	37.667	1	1073.02
2262	37.683	1	1072.91
2263	37.7	0	1073
2264	37.717	0	1073.24
2265	37.733	0	1073.86
2266	37.75	0	1074.42
2267	37.767	0	1075.22
2268	37.783	0	1075.94
2269	37.8	0	1076.99
2270	37.817	0	1078.05
2271	37.833	0	1079.04
2272	37.85	0	1080.17
2273	37.867	0	1081.63
2274	37.883	0	1083.04
2275	37.9	0	1084.97
2276	37.917	0	1087.34
2277	37.933	0	1090.7
2278	37.95	0	1095.03
2279	37.967	0	1100.82
2280	37.983	0	1108.46
2281	38	0	1118.01
2282	38.017	0	1129.85
2283	38.033	0	1143.83
2284	38.05	0	1159.9
2285	38.067	0	1178.15
2286	38.083	0	1198.24
2287	38.1	0	1220.21
2288	38.117	0	1243.56
2289	38.133	0	1268.5
2290	38.15	0	1294.69
2291	38.167	0	1322.06
2292	38.183	0	1350.27
2293	38.2	0	1379.51
2294	38.217	0	1409.26
2295	38.233	0	1439.38
2296	38.25	0	1469.58
2297	38.267	0	1499.72
2298	38.283	0	1529.43
2299	38.3	0	1558.47
2300	38.317	0	1586.56
2301	38.333	0	1613.34
2302	38.35	0	1638.8
2303	38.367	0	1662.93
2304	38.383	0	1685.38
2305	38.4	0	1706.33
2306	38.417	0	1725.49
2307	38.433	0	1743.05
2308	38.45	0	1758.95
2309	38.467	0	1773.79
2310	38.483	0	1787.24
2311	38.5	0	1799.58
2312	38.517	0	1810.73
2313	38.533	0	1821.08
2314	38.55	0	1830.48
2315	38.567	0	1838.93
2316	38.583	0	1846.57
2317	38.6	0	1853.85
2318	38.617	0	1860.4
2319	38.633	0	1866.24
2320	38.65	0	1871.56
2321	38.667	0	1876.12
2322	38.683	0	1880.39
2323	38.7	0	1883.86
2324	38.717	0	1887.05
2325	38.733	0	1889.56
2326	38.75	0	1891.7
2327	38.767	0	1893.61
2328	38.783	0	1895.23
2329	38.8	0	1896.65
2330	38.817	0	1897.65
2331	38.833	0	1898.71
2332	38.85	0	1899.25
2333	38.867	0	1900.08
2334	38.883	0	1900.6
2335	38.9	0	1900.88
2336	38.917	0	1901.27
2337	38.933	0	1901.53
2338	38.95	0	1901.75
2339	38.967	0	1901.9
2340	38.983	0	1902.26
2341	39	0	1902.38
2342	39.017	0	1902.63
2343	39.033	0	1902.74
2344	39.05	0	1902.99
2345	39.067	0	1903.56
2346	39.083	0	1903.58
2347	39.1	0	1903.73
2348	39.117	0	1903.9
2349	39.133	0	1904.18
2350	39.15	0	1904.28
2351	39.167	0	1904.31
2352	39.183	0	1905.06
2353	39.2	0	1905.05
2354	39.217	0	1905.07
2355	39.233	0	1905.09
2356	39.25	0	1905.19
2357	39.267	0	1905.21
2358	39.283	0	1905.31
2359	39.3	0	1905.36
2360	39.317	0	1905.41
2361	39.333	0	1905.32
2362	39.35	0	1905.19
2363	39.367	0	1905.16
2364	39.383	0	1905.13
2365	39.4	0	1905.05
2366	39.417	0	1905.01
2367	39.433	0	1904.93
2368	39.45	0	1905.87
2369	39.467	0	1905.98
2370	39.483	0	1905.88
2371	39.5	0	1905.75
2372	39.517	0	1905.57
2373	39.533	0	1905.36
2374	39.55	0	1905.02
2375	39.567	0	1904.74
2376	39.583	0	1904.49
2377	39.6	0	1904
2378	39.617	0	1903.38
2379	39.633	0	1902.7
2380	39.65	0	1901.69
2381	39.667	0	1900.73
2382	39.683	0	1899.6
2383	39.7	0	1898.38
2384	39.717	0	1897.06
2385	39.733	0	1895.97
2386	39.75	0	1894.84
2387	39.767	0	1893.98
2388	39.783	0	1893.31
2389	39.8	0	1892.77
2390	39.817	0	1892.63
2391	39.833	0	1892.62
2392	39.85	0	1892.8
2393	39.867	0	1893.15
2394	39.883	0	1893.63
2395	39.9	0	1894.11
2396	39.917	0	1894.68
2397	39.933	0	1895.11
2398	39.95	0	1895.59
2399	39.967	0	1895.83
2400	39.983	0	1896
2401	40	0	1895.91
2402	40.017	0	1895.77
2403	40.033	0	1895.43
2404	40.05	0	1894.96
2405	40.067	0	1894.22
2406	40.083	0	1893.31
2407	40.1	0	1892.5
2408	40.117	0	1891.95
2409	40.133	0	1891.71
2410	40.15	0	1892.14
2411	40.167	0	1892.97
2412	40.183	0	1893.93
2413	40.2	0	1894.79
2414	40.217	0	1895.67
2415	40.233	0	1896.56
2416	40.25	0	1897.55
2417	40.267	0	1898.41
2418	40.283	0	1899.21
2419	40.3	0	1899.95
2420	40.317	0	1900.54
2421	40.333	0	1901
2422	40.35	0	1901.24
2423	40.367	0	1901.55
2424	40.383	0	1901.82
2425	40.4	0	1901.9
2426	40.417	0	1901.85
2427	40.433	0	1901.6
2428	40.45	0	1901.38
2429	40.467	0	1901.02
2430	40.483	0	1900.63
2431	40.5	0	1900.29
2432	40.517	0	1899.96
2433	40.533	0	1899.62
2434	40.55	0	1899.22
2435	40.567	0	1898.91
2436	40.583	0	1898.53
2437	40.6	0	1897.53
2438	40.617	0	1897.28
2439	40.633	0	1896.96
2440	40.65	0	1896.82
2441	40.667	0	1896.87
2442	40.683	0	1896.91
2443	40.7	0	1897.03
2444	40.717	0	1897.2
2445	40.733	0	1897.09
2446	40.75	0	1896.95
2447	40.767	0	1896.83
2448	40.783	0	1896.72
2449	40.8	0	1896.7
2450	40.817	0	1896.61
2451	40.833	0	1896.48
2452	40.85	0	1896.26
2453	40.867	0	1896.24
2454	40.883	0	1896.12
2455	40.9	0	1896.11
2456	40.917	0	1896.15
2457	40.933	0	1896.03
2458	40.95	0	1896.16
2459	40.967	0	1896.31
2460	40.983	0	1896.27
2461	41	0	1896.31
2462	41.017	0	1896.4
2463	41.033	0	1896.66
2464	41.05	0	1896.43
2465	41.067	0	1896.71
2466	41.083	0	1897.07
2467	41.1	0	1897.17
2468	41.117	0	1897.18
2469	41.133	0	1897.43
2470	41.15	0	1897.31
2471	41.167	0	1897.3
2472	41.183	0	1897.27
2473	41.2	0	1897.53
2474	41.217	0	1897.55
2475	41.233	0	1897.65
2476	41.25	0	1897.73
2477	41.267	0	1897.76
2478	41.283	0	1898.1
2479	41.3	0	1898.07
2480	41.317	0	1898.71
2481	41.333	0	1899.3
