image_frame#	emergency	ground	cdf	pdf	Face_loc(Image)	Face_loc(Motion)
65	0	0	0.0694253	0.00266871	146	1936.18
66	0	0	0.0694253	0.00266871	146	1935.22
67	0	0	0.0721333	0.00274833	147	1933.72
68	0	0	0.0777914	0.00291128	149	1931.38
69	0	0	0.0869013	0.0031645	152	1927.53
70	0	0	0.0967856	0.00342737	155	1921.45
71	0	0	0.118983	0.00397726	161	1912.28
72	0	0	0.149149	0.00464594	168	1898.84
73	0	0	0.206082	0.00570073	179	1880.12
74	0	0	0.655383	0.0073654	240	1854.54
75	0	0	0.655383	0.0073654	240	1821.03
76	0	0	0.655383	0.0073654	240	1753.79
77	0	0	0.655383	0.0073654	240	1699.54
78	0	0	0.655383	0.0073654	240	1639.43
79	0	0	0.655383	0.0073654	240	1575.76
80	0	0	0.655383	0.0073654	240	1512.75
81	0	0	0.655383	0.0073654	240	1451.21
82	0	0	0.655383	0.0073654	240	1392.48
83	0	1	0.655383	0.0073654	240	1336.38
84	0	1	0.655383	0.0073654	240	1283.75
85	0	1	0.655383	0.0073654	240	1236.03
86	0	1	0.655383	0.0073654	240	1193.73
87	0	1	0.655383	0.0073654	240	1158.2
88	0	1	0.655383	0.0073654	240	1129.32
89	0	1	0.655383	0.0073654	240	1106.05
90	0	1	0.655383	0.0073654	240	1088
91	0	1	0.655383	0.0073654	240	1074.26
92	0	1	0.655383	0.0073654	240	1063.9
93	0	1	0.655383	0.0073654	240	1056.08
94	0	1	0.655383	0.0073654	240	1050.16
95	0	1	0.655383	0.0073654	240	1045.65
96	0	1	0.655383	0.0073654	240	1041.67
97	0	1	0.655383	0.0073654	240	1040.46
98	0	1	0.655383	0.0073654	240	1040.09
99	0	0	0.655383	0.0073654	240	1040.16
100	0	0	0.655383	0.0073654	240	1040.65
101	0	0	0.655383	0.0073654	240	1041.17
102	0	0	0.655383	0.0073654	240	1041.49
103	0	0	0.655383	0.0073654	240	1041.7
104	0	0	0.655383	0.0073654	240	1041.93
105	0	0	0.655383	0.0073654	240	1042.03
106	0	0	0.655383	0.0073654	240	1042.3
107	0	0	0.655383	0.0073654	240	1042.83
108	0	0	0.655383	0.0073654	240	1044.19
109	0	0	0.655383	0.0073654	240	1046.21
110	0	0	0.655383	0.0073654	240	1049.78
111	0	0	0.655383	0.0073654	240	1054.72
112	0	0	0.655383	0.0073654	240	1061.81
113	0	0	0.655383	0.0073654	240	1070.92
114	0	0	0.655383	0.0073654	240	1082.15
115	0	0	0.655383	0.0073654	240	1095.85
116	0	0	0.655383	0.0073654	240	1121.88
117	0	0	0.655383	0.0073654	240	1143.37
118	0	0	0.655383	0.0073654	240	1168.34
119	0	0	0.655383	0.0073654	240	1197.14
120	0	0	0.655383	0.0073654	240	1229.57
121	0	0	0.655383	0.0073654	240	1265.87
122	0	0	0.655383	0.0073654	240	1305.77
123	0	0	0.655383	0.0073654	240	1349.1
124	0	0	0.655383	0.0073654	240	1395.43
125	0	0	0.655383	0.0073654	240	1444.11
126	0	0	0.655383	0.0073654	240	1494.45
127	0	0	0.655383	0.0073654	240	1544.99
128	0	0	0.655383	0.0073654	240	1594.25
129	0	0	0.287708	0.00682092	192	1641.72
130	0	0	0.2236	0.00597745	182	1686.52
131	0	0	0.173586	0.00512943	173	1728.31
132	0	0	0.135647	0.00435704	165	1766.57
133	0	0	0.107471	0.00369875	158	1801.14
134	0	0	0.0901086	0.0032511	153	1831.64
135	0	0	0.0777914	0.00291128	149	1857.34
136	0	0	0.0721333	0.00274833	147	1887.58
137	0	0	0.0667962	0.00259035	145	1902.31
138	0	0	0.0642448	0.00251329	144	1913.44
139	0	0	0.0642448	0.00251329	144	1921.44
140	0	0	0.0617699	0.00243755	143	1926.78
141	0	0	0.0617699	0.00243755	143	1930.5
142	0	0	0.0617699	0.00243755	143	1932.73
143	0	0	0.0617699	0.00243755	143	1934.05
144	0	0	0.0617699	0.00243755	143	1934.88
145	0	0	0.0642448	0.00251329	144	1935.21
146	0	0	0.0617699	0.00243755	143	1935.27
147	0	0	0.0617699	0.00243755	143	1935.26
148	0	0	0.0617699	0.00243755	143	1935.23
149	0	0	0.0642448	0.00251329	144	1935.23
150	0	0	0.0642448	0.00251329	144	1935.33
151	0	0	0.0642448	0.00251329	144	1935.21
152	0	0	0.0642448	0.00251329	144	1935.25
153	0	0	0.0642448	0.00251329	144	1935.38
154	0	0	0.0642448	0.00251329	144	1935.42
155	0	0	0.0642448	0.00251329	144	1935.42
156	0	0	0.0642448	0.00251329	144	1935.23
157	0	0	0.0642448	0.00251329	144	1935.16
158	0	0	0.0642448	0.00251329	144	1935.23
159	0	0	0.0642448	0.00251329	144	1935.3
160	0	0	0.0642448	0.00251329	144	1935.35
161	0	0	0.0617699	0.00243755	143	1935.55
162	0	0	0.0642448	0.00251329	144	1935.57
163	0	0	0.0642448	0.00251329	144	1935.43
164	0	0	0.0617699	0.00243755	143	1935.34
165	0	0	0.0642448	0.00251329	144	1934.92
166	0	0	0.0642448	0.00251329	144	1934.26
167	0	0	0.0667962	0.00259035	145	1932.94
168	0	0	0.0667962	0.00259035	145	1930.7
169	0	0	0.0721333	0.00274833	147	1926.88
170	0	0	0.0777914	0.00291128	149	1920.65
171	0	0	0.0837801	0.00307897	151	1911.33
172	0	0	0.0967856	0.00342737	155	1897.65
173	0	0	0.118983	0.00397726	161	1878.32
174	0	0	0.153843	0.00474264	169	1851.84
175	0	0	0.217668	0.0058861	181	1816.23
176	0	0	0.655383	0.0073654	240	1744.89
177	0	0	0.655383	0.0073654	240	1687.19
178	0	0	0.655383	0.0073654	240	1622.66
179	0	0	0.655383	0.0073654	240	1553.46
180	0	0	0.655383	0.0073654	240	1483.35
181	0	0	0.655383	0.0073654	240	1413.67
182	0	0	0.655383	0.0073654	240	1347.58
183	0	1	0.655383	0.0073654	240	1287.08
184	0	1	0.655383	0.0073654	240	1232.58
185	0	1	0.655383	0.0073654	240	1186.02
186	0	1	0.655383	0.0073654	240	1147.11
187	0	1	0.655383	0.0073654	240	1115.44
188	0	1	0.655383	0.0073654	240	1090.2
189	0	1	0.655383	0.0073654	240	1070.8
190	0	1	0.655383	0.0073654	240	1056
191	0	1	0.655383	0.0073654	240	1045.12
192	0	1	0.655383	0.0073654	240	1037.39
193	0	1	0.655383	0.0073654	240	1031.8
194	0	1	0.655383	0.0073654	240	1028.12
195	0	1	0.655383	0.0073654	240	1025.39
196	0	1	0.655383	0.0073654	240	1022.54
197	0	1	0.655383	0.0073654	240	1021.38
198	0	1	0.655383	0.0073654	240	1020.26
199	0	1	0.655383	0.0073654	240	1019.4
200	0	1	0.655383	0.0073654	240	1018.88
201	0	1	0.655383	0.0073654	240	1018.41
202	0	1	0.655383	0.0073654	240	1018.1
203	0	1	0.655383	0.0073654	240	1017.93
204	0	0	0.655383	0.0073654	240	1018.03
205	0	0	0.655383	0.0073654	240	1018.44
206	0	0	0.655383	0.0073654	240	1019.08
207	0	0	0.655383	0.0073654	240	1019.76
208	0	0	0.655383	0.0073654	240	1020.56
209	0	0	0.655383	0.0073654	240	1021.45
210	0	0	0.655383	0.0073654	240	1022.39
211	0	0	0.655383	0.0073654	240	1023.98
212	0	0	0.655383	0.0073654	240	1026.36
213	0	0	0.655383	0.0073654	240	1029.99
214	0	0	0.655383	0.0073654	240	1035.76
215	0	0	0.655383	0.0073654	240	1043.85
216	0	0	0.655383	0.0073654	240	1062.15
217	0	0	0.655383	0.0073654	240	1078.69
218	0	0	0.655383	0.0073654	240	1099.14
219	0	0	0.655383	0.0073654	240	1123.46
220	0	0	0.655383	0.0073654	240	1151.74
221	0	0	0.655383	0.0073654	240	1184.39
222	0	0	0.655383	0.0073654	240	1221.25
223	0	0	0.655383	0.0073654	240	1262.39
224	0	0	0.655383	0.0073654	240	1307.59
225	0	0	0.655383	0.0073654	240	1356.2
226	0	0	0.655383	0.0073654	240	1407.25
227	0	0	0.655383	0.0073654	240	1460.05
228	0	0	0.655383	0.0073654	240	1513.67
229	0	0	0.655383	0.0073654	240	1567.31
230	0	0	0.655383	0.0073654	240	1619.86
231	0	0	0.655383	0.0073654	240	1670.2
232	0	0	0.655383	0.0073654	240	1717.31
233	0	0	0.178763	0.00522573	174	1760.33
234	0	0	0.140051	0.00445307	166	1798.18
235	0	0	0.107471	0.00369875	158	1830.94
236	0	0	0.0901086	0.0032511	153	1869.49
237	0	0	0.0807438	0.00299455	150	1888.28
238	0	0	0.0721333	0.00274833	147	1902.28
239	0	0	0.0694253	0.00266871	146	1912.44
240	0	0	0.0667962	0.00259035	145	1919.57
241	0	0	0.0642448	0.00251329	144	1924.31
242	0	0	0.0642448	0.00251329	144	1928
243	0	0	0.0617699	0.00243755	143	1930.09
244	0	0	0.0617699	0.00243755	143	1931.73
245	0	0	0.0617699	0.00243755	143	1932.51
246	0	0	0.0617699	0.00243755	143	1933.05
247	0	0	0.0617699	0.00243755	143	1932.92
248	0	0	0.0617699	0.00243755	143	1932.82
249	0	0	0.0617699	0.00243755	143	1932.76
250	0	0	0.0617699	0.00243755	143	1932.33
251	0	0	0.0642448	0.00251329	144	1932.22
252	0	0	0.0642448	0.00251329	144	1932.08
253	0	0	0.0642448	0.00251329	144	1931.92
254	0	0	0.0642448	0.00251329	144	1931.9
255	0	0	0.0642448	0.00251329	144	1931.92
256	0	0	0.0642448	0.00251329	144	1931.95
257	0	0	0.0642448	0.00251329	144	1931.87
258	0	0	0.0642448	0.00251329	144	1931.88
259	0	0	0.0642448	0.00251329	144	1931.93
260	0	0	0.0642448	0.00251329	144	1931.82
261	0	0	0.0642448	0.00251329	144	1931.74
262	0	0	0.0642448	0.00251329	144	1931.61
263	0	0	0.0642448	0.00251329	144	1931.33
264	0	0	0.0642448	0.00251329	144	1930.84
265	0	0	0.0642448	0.00251329	144	1930.4
266	0	0	0.0642448	0.00251329	144	1929.82
267	0	0	0.0642448	0.00251329	144	1928.39
268	0	0	0.0642448	0.00251329	144	1926.9
269	0	0	0.0642448	0.00251329	144	1924.78
270	0	0	0.0667962	0.00259035	145	1921.44
271	0	0	0.0694253	0.00266871	146	1916.27
272	0	0	0.0721333	0.00274833	147	1908.19
273	0	0	0.0777914	0.00291128	149	1896.03
274	0	0	0.0901086	0.0032511	153	1878.39
275	0	0	0.107471	0.00369875	158	1853.12
276	0	0	0.140051	0.00445307	166	1796.59
277	0	0	0.200429	0.00560688	178	1745.17
278	0	0	0.655383	0.0073654	240	1684.55
279	0	0	0.655383	0.0073654	240	1618.35
280	0	0	0.655383	0.0073654	240	1550.73
281	0	0	0.655383	0.0073654	240	1484.24
282	0	0	0.655383	0.0073654	240	1421.11
283	0	0	0.655383	0.0073654	240	1361.58
284	0	1	0.655383	0.0073654	240	1305.56
285	0	1	0.655383	0.0073654	240	1254.93
286	0	1	0.655383	0.0073654	240	1209.94
287	0	1	0.655383	0.0073654	240	1170.94
288	0	1	0.655383	0.0073654	240	1138.33
289	0	1	0.655383	0.0073654	240	1111.35
290	0	1	0.655383	0.0073654	240	1089.04
291	0	1	0.655383	0.0073654	240	1070.64
292	0	1	0.655383	0.0073654	240	1055.74
293	0	1	0.655383	0.0073654	240	1044.01
294	0	1	0.655383	0.0073654	240	1035.34
295	0	1	0.655383	0.0073654	240	1029.11
296	0	1	0.655383	0.0073654	240	1023.87
297	0	1	0.655383	0.0073654	240	1021.96
298	0	1	0.655383	0.0073654	240	1021.23
299	0	1	0.655383	0.0073654	240	1021.05
300	0	0	0.655383	0.0073654	240	1021.29
301	0	0	0.655383	0.0073654	240	1021.84
302	0	0	0.655383	0.0073654	240	1022.58
303	0	0	0.655383	0.0073654	240	1023.24
304	0	0	0.655383	0.0073654	240	1023.94
305	0	0	0.655383	0.0073654	240	1024.74
306	0	0	0.655383	0.0073654	240	1025.54
307	0	0	0.655383	0.0073654	240	1026.69
308	0	0	0.655383	0.0073654	240	1027.71
309	0	0	0.655383	0.0073654	240	1028.84
310	0	0	0.655383	0.0073654	240	1029.82
311	0	0	0.655383	0.0073654	240	1030.57
312	0	0	0.655383	0.0073654	240	1031.28
313	0	0	0.655383	0.0073654	240	1032.32
314	0	0	0.655383	0.0073654	240	1033.6
315	0	0	0.655383	0.0073654	240	1035.61
316	0	0	0.655383	0.0073654	240	1040.32
317	0	0	0.655383	0.0073654	240	1045.05
318	0	0	0.655383	0.0073654	240	1051.38
319	0	0	0.655383	0.0073654	240	1060
320	0	0	0.655383	0.0073654	240	1071.97
321	0	0	0.655383	0.0073654	240	1089.02
322	0	0	0.655383	0.0073654	240	1111.62
323	0	0	0.655383	0.0073654	240	1140.14
324	0	0	0.655383	0.0073654	240	1174.92
325	0	0	0.655383	0.0073654	240	1215.71
326	0	0	0.655383	0.0073654	240	1261.7
327	0	0	0.655383	0.0073654	240	1312.46
328	0	0	0.655383	0.0073654	240	1366.92
329	0	0	0.655383	0.0073654	240	1423.55
330	0	0	0.655383	0.0073654	240	1481.06
331	0	0	0.655383	0.0073654	240	1538.53
332	0	0	0.655383	0.0073654	240	1594.31
333	0	0	0.655383	0.0073654	240	1647.52
334	0	0	0.655383	0.0073654	240	1696.61
335	0	0	0.655383	0.0073654	240	1740.87
336	0	0	0.655383	0.0073654	240	1797.38
337	0	0	0.194869	0.00551236	177	1828.32
338	0	0	0.153843	0.00474264	169	1854.39
339	0	0	0.118983	0.00397726	161	1875.66
340	0	0	0.100257	0.00351695	156	1892.54
341	0	0	0.0869013	0.0031645	152	1905.35
342	0	0	0.0807438	0.00299455	150	1914.61
343	0	0	0.0721333	0.00274833	147	1921.54
344	0	0	0.0694253	0.00266871	146	1926.12
345	0	0	0.0694253	0.00266871	146	1929.16
346	0	0	0.0667962	0.00259035	145	1931.32
347	0	0	0.0642448	0.00251329	144	1932.99
348	0	0	0.0642448	0.00251329	144	1933.89
349	0	0	0.0642448	0.00251329	144	1934.12
350	0	0	0.0642448	0.00251329	144	1934.11
351	0	0	0.0642448	0.00251329	144	1934.05
352	0	0	0.0642448	0.00251329	144	1933.8
353	0	0	0.0642448	0.00251329	144	1933.86
354	0	0	0.0642448	0.00251329	144	1933.82
355	0	0	0.0642448	0.00251329	144	1933.74
356	0	0	0.0667962	0.00259035	145	1933.64
357	0	0	0.0642448	0.00251329	144	1933.53
358	0	0	0.0667962	0.00259035	145	1933.44
359	0	0	0.0642448	0.00251329	144	1933.18
360	0	0	0.0642448	0.00251329	144	1932.95
361	0	0	0.0642448	0.00251329	144	1932.6
362	0	0	0.0642448	0.00251329	144	1932.05
363	0	0	0.0642448	0.00251329	144	1931.39
364	0	0	0.0642448	0.00251329	144	1930.89
365	0	0	0.0642448	0.00251329	144	1930.1
366	0	0	0.0642448	0.00251329	144	1928.2
367	0	0	0.0642448	0.00251329	144	1925.26
368	0	0	0.0642448	0.00251329	144	1920.49
369	0	0	0.0667962	0.00259035	145	1913.56
370	0	0	0.0694253	0.00266871	146	1902.64
371	0	0	0.0721333	0.00274833	147	1886.65
372	0	0	0.0777914	0.00291128	149	1863.78
373	0	0	0.0869013	0.0031645	152	1833.02
374	0	0	0.107471	0.00369875	158	1792.72
375	0	0	0.135647	0.00435704	165	1742.04
376	0	0	0.184036	0.00532171	175	1650.92
377	0	0	0.655383	0.0073654	240	1582.97
378	0	0	0.655383	0.0073654	240	1513.24
379	0	0	0.655383	0.0073654	240	1443.85
380	0	0	0.655383	0.0073654	240	1377.26
381	0	1	0.655383	0.0073654	240	1316.24
382	0	1	0.655383	0.0073654	240	1261.48
383	0	1	0.655383	0.0073654	240	1213.99
384	0	1	0.655383	0.0073654	240	1173.94
385	0	1	0.655383	0.0073654	240	1140.93
386	0	1	0.655383	0.0073654	240	1114.75
387	0	1	0.655383	0.0073654	240	1094.38
388	0	1	0.655383	0.0073654	240	1078.74
389	0	1	0.655383	0.0073654	240	1066.54
390	0	1	0.655383	0.0073654	240	1057.49
391	0	1	0.655383	0.0073654	240	1050.17
392	0	1	0.655383	0.0073654	240	1044.61
393	0	1	0.655383	0.0073654	240	1040.28
394	0	1	0.655383	0.0073654	240	1036.9
395	0	1	0.655383	0.0073654	240	1034.2
396	0	1	0.655383	0.0073654	240	1030.79
397	0	1	0.655383	0.0073654	240	1029.14
398	0	1	0.655383	0.0073654	240	1027.99
399	0	1	0.655383	0.0073654	240	1027.61
400	0	0	0.655383	0.0073654	240	1028
401	0	0	0.655383	0.0073654	240	1029
402	0	0	0.655383	0.0073654	240	1030.64
403	0	0	0.655383	0.0073654	240	1033.03
404	0	0	0.655383	0.0073654	240	1035.6
405	0	0	0.655383	0.0073654	240	1038.41
406	0	0	0.655383	0.0073654	240	1041.48
407	0	0	0.655383	0.0073654	240	1044.8
408	0	0	0.655383	0.0073654	240	1048.82
409	0	0	0.655383	0.0073654	240	1054.33
410	0	0	0.655383	0.0073654	240	1062.25
411	0	0	0.655383	0.0073654	240	1073.42
412	0	0	0.655383	0.0073654	240	1088.75
413	0	0	0.655383	0.0073654	240	1108.57
414	0	0	0.655383	0.0073654	240	1132.7
415	0	0	0.655383	0.0073654	240	1161.36
416	0	0	0.655383	0.0073654	240	1212.47
417	0	0	0.655383	0.0073654	240	1251.9
418	0	0	0.655383	0.0073654	240	1294.78
419	0	0	0.655383	0.0073654	240	1341.22
420	0	0	0.655383	0.0073654	240	1390.31
421	0	0	0.655383	0.0073654	240	1441.42
422	0	0	0.655383	0.0073654	240	1493.53
423	0	0	0.655383	0.0073654	240	1546.11
424	0	0	0.655383	0.0073654	240	1598.23
425	0	0	0.655383	0.0073654	240	1648.77
426	0	0	0.655383	0.0073654	240	1696.63
427	0	0	0.655383	0.0073654	240	1741.48
428	0	0	0.655383	0.0073654	240	1781.97
429	0	0	0.655383	0.0073654	240	1817.65
430	0	0	0.655383	0.0073654	240	1848.49
431	0	0	0.655383	0.0073654	240	1873.96
432	0	0	0.655383	0.0073654	240	1894.09
433	0	0	0.111216	0.00379086	159	1909.63
434	0	0	0.093403	0.00333874	154	1921.27
435	0	0	0.0807438	0.00299455	150	1929.35
436	0	0	0.0721333	0.00274833	147	1936.71
437	0	0	0.0642448	0.00251329	144	1939.46
438	0	0	0.0617699	0.00243755	143	1941.15
439	0	0	0.05937	0.00236315	142	1942.18
440	0	0	0.05937	0.00236315	142	1942.42
441	0	0	0.0570438	0.0022901	141	1942.14
442	0	0	0.05937	0.00236315	142	1941.44
443	0	0	0.0570438	0.0022901	141	1940.94
444	0	0	0.05937	0.00236315	142	1939.84
445	0	0	0.05937	0.00236315	142	1939.58
446	0	0	0.05937	0.00236315	142	1939.35
447	0	0	0.0617699	0.00243755	143	1939.06
448	0	0	0.0617699	0.00243755	143	1938.74
449	0	0	0.0617699	0.00243755	143	1938.76
450	0	0	0.0617699	0.00243755	143	1938.64
451	0	0	0.0617699	0.00243755	143	1938.48
452	0	0	0.0617699	0.00243755	143	1938.39
453	0	0	0.0617699	0.00243755	143	1938.03
454	0	0	0.0642448	0.00251329	144	1937.78
455	0	0	0.0642448	0.00251329	144	1937.58
456	0	0	0.0642448	0.00251329	144	1937.36
457	0	0	0.0642448	0.00251329	144	1937.13
458	0	0	0.0642448	0.00251329	144	1936.85
459	0	0	0.0642448	0.00251329	144	1936.68
460	0	0	0.0642448	0.00251329	144	1936.21
461	0	0	0.0642448	0.00251329	144	1935.64
462	0	0	0.0642448	0.00251329	144	1934.48
463	0	0	0.0642448	0.00251329	144	1932.71
464	0	0	0.0642448	0.00251329	144	1929.73
465	0	0	0.0642448	0.00251329	144	1924.54
466	0	0	0.0642448	0.00251329	144	1916.35
467	0	0	0.0642448	0.00251329	144	1903.77
468	0	0	0.0667962	0.00259035	145	1885.3
469	0	0	0.0694253	0.00266871	146	1859.09
470	0	0	0.0721333	0.00274833	147	1823.76
471	0	0	0.0807438	0.00299455	150	1777.48
472	0	0	0.0901086	0.0032511	153	1720.91
473	0	0	0.111216	0.00379086	159	1656.17
474	0	0	0.149149	0.00464594	168	1586.53
475	0	0	0.655383	0.0073654	240	1514.82
476	0	0	0.655383	0.0073654	240	1409.23
477	0	0	0.655383	0.0073654	240	1343.78
478	0	1	0.655383	0.0073654	240	1284.96
479	0	1	0.655383	0.0073654	240	1234.47
480	0	1	0.655383	0.0073654	240	1191.95
481	0	1	0.655383	0.0073654	240	1157.04
482	0	1	0.655383	0.0073654	240	1129.56
483	0	1	0.655383	0.0073654	240	1108.14
484	0	1	0.655383	0.0073654	240	1092.04
485	0	1	0.655383	0.0073654	240	1080.42
486	0	1	0.655383	0.0073654	240	1071.95
487	0	1	0.655383	0.0073654	240	1066.4
488	0	1	0.655383	0.0073654	240	1063.05
489	0	1	0.655383	0.0073654	240	1061.07
490	0	1	0.655383	0.0073654	240	1059.9
491	0	1	0.655383	0.0073654	240	1058.98
492	0	1	0.655383	0.0073654	240	1058.29
493	0	1	0.655383	0.0073654	240	1057.6
494	0	1	0.655383	0.0073654	240	1057.01
495	0	1	0.655383	0.0073654	240	1056.24
496	0	1	0.655383	0.0073654	240	1055.73
497	0	1	0.655383	0.0073654	240	1055.61
498	0	0	0.655383	0.0073654	240	1055.98
499	0	0	0.655383	0.0073654	240	1056.91
500	0	0	0.655383	0.0073654	240	1058.64
501	0	0	0.655383	0.0073654	240	1061.43
502	0	0	0.655383	0.0073654	240	1065.96
503	0	0	0.655383	0.0073654	240	1072.87
504	0	0	0.655383	0.0073654	240	1082.92
505	0	0	0.655383	0.0073654	240	1097.22
506	0	0	0.655383	0.0073654	240	1115.96
507	0	0	0.655383	0.0073654	240	1139.59
508	0	0	0.655383	0.0073654	240	1168.54
509	0	0	0.655383	0.0073654	240	1202.64
510	0	0	0.655383	0.0073654	240	1241.85
511	0	0	0.655383	0.0073654	240	1286.03
512	0	0	0.655383	0.0073654	240	1334.46
513	0	0	0.655383	0.0073654	240	1386.32
514	0	0	0.655383	0.0073654	240	1440.31
515	0	0	0.655383	0.0073654	240	1495.33
516	0	0	0.655383	0.0073654	240	1550.07
517	0	0	0.655383	0.0073654	240	1629.07
518	0	0	0.655383	0.0073654	240	1678.55
519	0	0	0.655383	0.0073654	240	1724.43
520	0	0	0.655383	0.0073654	240	1765.61
521	0	0	0.655383	0.0073654	240	1802.17
522	0	0	0.655383	0.0073654	240	1833.79
523	0	0	0.655383	0.0073654	240	1860.3
524	0	0	0.655383	0.0073654	240	1881.85
525	0	0	0.655383	0.0073654	240	1898.81
526	0	0	0.655383	0.0073654	240	1911.99
527	0	0	0.655383	0.0073654	240	1921.95
528	0	0	0.655383	0.0073654	240	1929.24
529	0	0	0.0869013	0.0031645	152	1934.28
530	0	0	0.0749216	0.0028292	148	1937.92
531	0	0	0.0694253	0.00266871	146	1940.1
532	0	0	0.0642448	0.00251329	144	1941.37
533	0	0	0.0617699	0.00243755	143	1942.23
534	0	0	0.05937	0.00236315	142	1942.4
535	0	0	0.05937	0.00236315	142	1942.28
536	0	0	0.05937	0.00236315	142	1941.83
537	0	0	0.05937	0.00236315	142	1940.76
538	0	0	0.05937	0.00236315	142	1940.34
539	0	0	0.05937	0.00236315	142	1940.03
540	0	0	0.05937	0.00236315	142	1939.8
541	0	0	0.0617699	0.00243755	143	1939.47
542	0	0	0.0617699	0.00243755	143	1939.46
543	0	0	0.0617699	0.00243755	143	1939.29
544	0	0	0.0617699	0.00243755	143	1939.18
545	0	0	0.0617699	0.00243755	143	1938.81
546	0	0	0.0617699	0.00243755	143	1938.61
547	0	0	0.0617699	0.00243755	143	1938.4
548	0	0	0.0617699	0.00243755	143	1938.22
549	0	0	0.0617699	0.00243755	143	1938.14
550	0	0	0.0617699	0.00243755	143	1938.02
551	0	0	0.0617699	0.00243755	143	1937.88
552	0	0	0.0617699	0.00243755	143	1937.68
553	0	0	0.0617699	0.00243755	143	1937.13
554	0	0	0.0617699	0.00243755	143	1936.35
555	0	0	0.0617699	0.00243755	143	1935.04
556	0	0	0.0617699	0.00243755	143	1933.31
557	0	0	0.0617699	0.00243755	143	1927.76
558	0	0	0.0617699	0.00243755	143	1921.13
559	0	0	0.0617699	0.00243755	143	1910.93
560	0	0	0.0617699	0.00243755	143	1895.65
561	0	0	0.0617699	0.00243755	143	1873.69
562	0	0	0.0642448	0.00251329	144	1843.78
563	0	0	0.0667962	0.00259035	145	1803.43
564	0	0	0.0694253	0.00266871	146	1752.14
565	0	0	0.0749216	0.0028292	148	1692.05
566	0	0	0.0869013	0.0031645	152	1626.21
567	0	0	0.100257	0.00351695	156	1558.45
568	0	0	0.131338	0.00426138	164	1490.76
569	0	0	0.178763	0.00522573	174	1425.56
570	0	0	0.655383	0.0073654	240	1365.31
571	0	1	0.655383	0.0073654	240	1310.03
572	0	1	0.655383	0.0073654	240	1260.65
573	0	1	0.655383	0.0073654	240	1217.13
574	0	1	0.655383	0.0073654	240	1179.46
575	0	1	0.655383	0.0073654	240	1148.17
576	0	1	0.655383	0.0073654	240	1121.87
577	0	1	0.655383	0.0073654	240	1090.76
578	0	1	0.655383	0.0073654	240	1074.62
579	0	1	0.655383	0.0073654	240	1061.88
580	0	1	0.655383	0.0073654	240	1051.41
581	0	1	0.655383	0.0073654	240	1043.01
582	0	1	0.655383	0.0073654	240	1036.37
583	0	1	0.655383	0.0073654	240	1031.18
584	0	1	0.655383	0.0073654	240	1027.38
585	0	1	0.655383	0.0073654	240	1024.76
586	0	1	0.655383	0.0073654	240	1023.54
587	0	0	0.655383	0.0073654	240	1023.43
588	0	0	0.655383	0.0073654	240	1024.72
589	0	0	0.655383	0.0073654	240	1027.8
590	0	0	0.655383	0.0073654	240	1033.06
591	0	0	0.655383	0.0073654	240	1041.79
592	0	0	0.655383	0.0073654	240	1054.47
593	0	0	0.655383	0.0073654	240	1071.32
594	0	0	0.655383	0.0073654	240	1092.98
595	0	0	0.655383	0.0073654	240	1119.43
596	0	0	0.655383	0.0073654	240	1150.48
597	0	0	0.655383	0.0073654	240	1205.48
598	0	0	0.655383	0.0073654	240	1247.03
599	0	0	0.655383	0.0073654	240	1292.19
600	0	0	0.655383	0.0073654	240	1340.19
601	0	0	0.655383	0.0073654	240	1390.3
602	0	0	0.655383	0.0073654	240	1441.75
603	0	0	0.655383	0.0073654	240	1493.41
604	0	0	0.655383	0.0073654	240	1544.59
605	0	0	0.655383	0.0073654	240	1594.58
606	0	0	0.655383	0.0073654	240	1643.07
607	0	0	0.655383	0.0073654	240	1689.17
608	0	0	0.655383	0.0073654	240	1731.87
609	0	0	0.655383	0.0073654	240	1770.85
610	0	0	0.655383	0.0073654	240	1805.51
611	0	0	0.655383	0.0073654	240	1835.72
612	0	0	0.655383	0.0073654	240	1861.44
613	0	0	0.655383	0.0073654	240	1882.86
614	0	0	0.655383	0.0073654	240	1899.92
615	0	0	0.655383	0.0073654	240	1913.91
616	0	0	0.655383	0.0073654	240	1924.17
617	0	0	0.135647	0.00435704	165	1935.55
618	0	0	0.111216	0.00379086	159	1939.13
619	0	0	0.093403	0.00333874	154	1941.64
620	0	0	0.0807438	0.00299455	150	1942.84
621	0	0	0.0721333	0.00274833	147	1943.22
622	0	0	0.0642448	0.00251329	144	1943.01
623	0	0	0.0617699	0.00243755	143	1942.38
624	0	0	0.05937	0.00236315	142	1941.69
625	0	0	0.0570438	0.0022901	141	1940.78
626	0	0	0.0570438	0.0022901	141	1939.84
627	0	0	0.0570438	0.0022901	141	1939.11
628	0	0	0.0570438	0.0022901	141	1938.67
629	0	0	0.0570438	0.0022901	141	1938.11
630	0	0	0.0570438	0.0022901	141	1937.84
631	0	0	0.05937	0.00236315	142	1937.92
632	0	0	0.05937	0.00236315	142	1937.66
633	0	0	0.0617699	0.00243755	143	1937.39
634	0	0	0.0617699	0.00243755	143	1937.24
635	0	0	0.0617699	0.00243755	143	1937.28
636	0	0	0.0617699	0.00243755	143	1937.26
637	0	0	0.0642448	0.00251329	144	1937.36
638	0	0	0.0642448	0.00251329	144	1937.41
639	0	0	0.0642448	0.00251329	144	1937.44
640	0	0	0.0642448	0.00251329	144	1937.42
641	0	0	0.0642448	0.00251329	144	1937.34
642	0	0	0.0642448	0.00251329	144	1937.1
643	0	0	0.0642448	0.00251329	144	1936.58
644	0	0	0.0642448	0.00251329	144	1935.76
645	0	0	0.0642448	0.00251329	144	1934.82
646	0	0	0.0642448	0.00251329	144	1933.32
647	0	0	0.0642448	0.00251329	144	1931.02
648	0	0	0.0642448	0.00251329	144	1926.96
649	0	0	0.0642448	0.00251329	144	1920.38
650	0	0	0.0642448	0.00251329	144	1910.22
651	0	0	0.0642448	0.00251329	144	1894.71
652	0	0	0.0642448	0.00251329	144	1871.93
653	0	0	0.0642448	0.00251329	144	1840.07
654	0	0	0.0667962	0.00259035	145	1797.84
655	0	0	0.0667962	0.00259035	145	1745.77
656	0	0	0.0694253	0.00266871	146	1686.71
657	0	0	0.0749216	0.0028292	148	1590.04
658	0	0	0.0807438	0.00299455	150	1524.64
659	0	0	0.093403	0.00333874	154	1460.14
660	0	0	0.118983	0.00397726	161	1399.26
661	0	0	0.153843	0.00474264	169	1343.22
662	0	1	0.655383	0.0073654	240	1293.31
663	0	1	0.655383	0.0073654	240	1249.91
664	0	1	0.655383	0.0073654	240	1212.62
665	0	1	0.655383	0.0073654	240	1181.95
666	0	1	0.655383	0.0073654	240	1156.19
667	0	1	0.655383	0.0073654	240	1134.97
668	0	1	0.655383	0.0073654	240	1117.08
669	0	1	0.655383	0.0073654	240	1101.96
670	0	1	0.655383	0.0073654	240	1089.04
671	0	1	0.655383	0.0073654	240	1078.37
672	0	1	0.655383	0.0073654	240	1069.81
673	0	1	0.655383	0.0073654	240	1063
674	0	1	0.655383	0.0073654	240	1057.33
675	0	1	0.655383	0.0073654	240	1053.13
676	0	1	0.655383	0.0073654	240	1050.09
677	0	1	0.655383	0.0073654	240	1046.98
678	0	1	0.655383	0.0073654	240	1045.92
679	0	1	0.655383	0.0073654	240	1045.32
680	0	1	0.655383	0.0073654	240	1044.99
681	0	0	0.655383	0.0073654	240	1045.09
682	0	0	0.655383	0.0073654	240	1045.16
683	0	0	0.655383	0.0073654	240	1045.42
684	0	0	0.655383	0.0073654	240	1045.61
685	0	0	0.655383	0.0073654	240	1045.87
686	0	0	0.655383	0.0073654	240	1046.67
687	0	0	0.655383	0.0073654	240	1048.8
688	0	0	0.655383	0.0073654	240	1053.3
689	0	0	0.655383	0.0073654	240	1061.23
690	0	0	0.655383	0.0073654	240	1073.38
691	0	0	0.655383	0.0073654	240	1090.2
692	0	0	0.655383	0.0073654	240	1112.22
693	0	0	0.655383	0.0073654	240	1139.51
694	0	0	0.655383	0.0073654	240	1172.49
695	0	0	0.655383	0.0073654	240	1210.88
696	0	0	0.655383	0.0073654	240	1254.69
697	0	0	0.655383	0.0073654	240	1328.34
698	0	0	0.655383	0.0073654	240	1381.49
699	0	0	0.655383	0.0073654	240	1436.11
700	0	0	0.655383	0.0073654	240	1491.06
701	0	0	0.655383	0.0073654	240	1545.11
702	0	0	0.655383	0.0073654	240	1597.33
703	0	0	0.655383	0.0073654	240	1646.84
704	0	0	0.655383	0.0073654	240	1692.94
705	0	0	0.655383	0.0073654	240	1735.51
706	0	0	0.655383	0.0073654	240	1774.32
707	0	0	0.655383	0.0073654	240	1808.61
708	0	0	0.655383	0.0073654	240	1838.56
709	0	0	0.655383	0.0073654	240	1864.17
710	0	0	0.655383	0.0073654	240	1885.39
711	0	0	0.655383	0.0073654	240	1902.17
712	0	0	0.655383	0.0073654	240	1914.82
713	0	0	0.280926	0.0067436	191	1923.84
714	0	0	0.655383	0.0073654	240	1930.44
715	0	0	0.655383	0.0073654	240	1934.76
716	0	0	0.655383	0.0073654	240	1937.58
717	0	0	0.655383	0.0073654	240	1940.32
718	0	0	0.655383	0.0073654	240	1941.09
719	0	0	0.655383	0.0073654	240	1941.76
720	0	0	0.655383	0.0073654	240	1941.86
721	0	0	0.0667962	0.00259035	145	1941.44
722	0	0	0.0617699	0.00243755	143	1941.01
723	0	0	0.05937	0.00236315	142	1940.69
724	0	0	0.05937	0.00236315	142	1940.4
725	0	0	0.05937	0.00236315	142	1940.2
726	0	0	0.05937	0.00236315	142	1940.03
727	0	0	0.0570438	0.0022901	141	1939.91
728	0	0	0.0570438	0.0022901	141	1939.82
729	0	0	0.0570438	0.0022901	141	1939.77
730	0	0	0.05937	0.00236315	142	1939.68
731	0	0	0.05937	0.00236315	142	1939.61
732	0	0	0.05937	0.00236315	142	1939.34
733	0	0	0.05937	0.00236315	142	1939.15
734	0	0	0.05937	0.00236315	142	1939.05
735	0	0	0.05937	0.00236315	142	1938.53
736	0	0	0.05937	0.00236315	142	1937.61
737	0	0	0.05937	0.00236315	142	1935.07
738	0	0	0.05937	0.00236315	142	1932.16
739	0	0	0.05937	0.00236315	142	1927.64
740	0	0	0.05937	0.00236315	142	1921.03
741	0	0	0.05937	0.00236315	142	1910.56
742	0	0	0.05937	0.00236315	142	1895.22
743	0	0	0.05937	0.00236315	142	1872.72
744	0	0	0.05937	0.00236315	142	1841.16
745	0	0	0.05937	0.00236315	142	1799.03
746	0	0	0.0617699	0.00243755	143	1745.26
747	0	0	0.0617699	0.00243755	143	1682.14
748	0	0	0.0617699	0.00243755	143	1612.18
749	0	0	0.0642448	0.00251329	144	1539.8
750	0	0	0.0694253	0.00266871	146	1468.3
751	0	0	0.0749216	0.0028292	148	1400.84
752	0	1	0.0869013	0.0031645	152	1339.38
753	0	1	0.115053	0.00388372	160	1283.83
754	0	1	0.149149	0.00464594	168	1234.89
755	0	1	0.217668	0.0058861	181	1192.61
756	0	1	0.655383	0.0073654	240	1156.33
757	0	1	0.655383	0.0073654	240	1112.9
758	0	1	0.655383	0.0073654	240	1090.23
759	0	1	0.655383	0.0073654	240	1072.16
760	0	1	0.655383	0.0073654	240	1057.61
761	0	1	0.655383	0.0073654	240	1046.04
762	0	1	0.655383	0.0073654	240	1036.64
763	0	1	0.655383	0.0073654	240	1029.4
764	0	1	0.655383	0.0073654	240	1023.69
765	0	1	0.655383	0.0073654	240	1019.34
766	0	1	0.655383	0.0073654	240	1016.57
767	0	1	0.655383	0.0073654	240	1014.87
768	0	1	0.655383	0.0073654	240	1013.79
769	0	1	0.655383	0.0073654	240	1013.12
770	0	1	0.655383	0.0073654	240	1012.82
771	0	1	0.655383	0.0073654	240	1012.68
772	0	0	0.655383	0.0073654	240	1013.1
773	0	0	0.655383	0.0073654	240	1013.71
774	0	0	0.655383	0.0073654	240	1014.92
775	0	0	0.655383	0.0073654	240	1017.26
776	0	0	0.655383	0.0073654	240	1020.99
777	0	0	0.655383	0.0073654	240	1031.16
778	0	0	0.655383	0.0073654	240	1041.93
779	0	0	0.655383	0.0073654	240	1056.21
780	0	0	0.655383	0.0073654	240	1074.02
781	0	0	0.655383	0.0073654	240	1095.79
782	0	0	0.655383	0.0073654	240	1121.76
783	0	0	0.655383	0.0073654	240	1152.44
784	0	0	0.655383	0.0073654	240	1188.18
785	0	0	0.655383	0.0073654	240	1228.63
786	0	0	0.655383	0.0073654	240	1273.48
787	0	0	0.655383	0.0073654	240	1321.9
788	0	0	0.655383	0.0073654	240	1373.22
789	0	0	0.655383	0.0073654	240	1426.72
790	0	0	0.655383	0.0073654	240	1481.62
791	0	0	0.655383	0.0073654	240	1536.73
792	0	0	0.655383	0.0073654	240	1590.87
793	0	0	0.655383	0.0073654	240	1642.8
794	0	0	0.655383	0.0073654	240	1691.45
795	0	0	0.655383	0.0073654	240	1736.02
796	0	0	0.655383	0.0073654	240	1776.08
797	0	0	0.655383	0.0073654	240	1826.87
798	0	0	0.655383	0.0073654	240	1854.39
799	0	0	0.655383	0.0073654	240	1876.87
800	0	0	0.655383	0.0073654	240	1894.92
801	0	0	0.655383	0.0073654	240	1909
802	0	0	0.655383	0.0073654	240	1919.26
803	0	0	0.655383	0.0073654	240	1927.16
804	0	0	0.655383	0.0073654	240	1932.39
805	0	0	0.655383	0.0073654	240	1935.58
806	0	0	0.655383	0.0073654	240	1937.45
807	0	0	0.655383	0.0073654	240	1938.71
808	0	0	0.655383	0.0073654	240	1939.52
809	0	0	0.093403	0.00333874	154	1940.18
810	0	0	0.0807438	0.00299455	150	1940.36
811	0	0	0.0721333	0.00274833	147	1940.31
812	0	0	0.0667962	0.00259035	145	1940.01
813	0	0	0.0617699	0.00243755	143	1940.09
814	0	0	0.0617699	0.00243755	143	1939.96
815	0	0	0.05937	0.00236315	142	1939.8
816	0	0	0.05937	0.00236315	142	1939.76
817	0	0	0.05937	0.00236315	142	1939.51
818	0	0	0.05937	0.00236315	142	1939.28
819	0	0	0.0570438	0.0022901	141	1939.17
820	0	0	0.05937	0.00236315	142	1938.9
821	0	0	0.05937	0.00236315	142	1938.62
822	0	0	0.05937	0.00236315	142	1938.35
823	0	0	0.05937	0.00236315	142	1938.04
824	0	0	0.05937	0.00236315	142	1937.8
825	0	0	0.05937	0.00236315	142	1937.47
826	0	0	0.05937	0.00236315	142	1936.92
827	0	0	0.05937	0.00236315	142	1936.31
828	0	0	0.05937	0.00236315	142	1935.53
829	0	0	0.05937	0.00236315	142	1934.27
830	0	0	0.05937	0.00236315	142	1932.58
831	0	0	0.05937	0.00236315	142	1929.95
832	0	0	0.05937	0.00236315	142	1925.55
833	0	0	0.05937	0.00236315	142	1918.86
834	0	0	0.05937	0.00236315	142	1908.71
835	0	0	0.05937	0.00236315	142	1893.45
836	0	0	0.05937	0.00236315	142	1870.91
837	0	0	0.05937	0.00236315	142	1819.08
838	0	0	0.0617699	0.00243755	143	1769.98
839	0	0	0.0617699	0.00243755	143	1710.66
840	0	0	0.0617699	0.00243755	143	1644.03
841	0	0	0.0617699	0.00243755	143	1573.4
842	0	0	0.0642448	0.00251329	144	1502.11
843	0	0	0.0642448	0.00251329	144	1431.38
844	0	0	0.0667962	0.00259035	145	1363.17
845	0	1	0.0721333	0.00274833	147	1299.45
846	0	1	0.0837801	0.00307897	151	1241.4
847	0	1	0.100257	0.00351695	156	1189.91
848	0	1	0.127125	0.00416616	163	1145.21
849	0	1	0.184036	0.00532171	175	1107.19
850	0	1	0.280926	0.0067436	191	1075.58
851	0	1	0.655383	0.0073654	240	1049.62
852	0	1	0.655383	0.0073654	240	1028.47
853	0	1	0.655383	0.0073654	240	1012.15
854	0	1	0.655383	0.0073654	240	999.899
855	0	1	0.655383	0.0073654	240	991.263
856	0	1	0.655383	0.0073654	240	985.439
857	0	1	0.655383	0.0073654	240	981.06
858	0	1	0.655383	0.0073654	240	980.193
859	0	0	0.655383	0.0073654	240	980.522
860	0	0	0.655383	0.0073654	240	981.581
861	0	0	0.655383	0.0073654	240	983.189
862	0	0	0.655383	0.0073654	240	985.292
863	0	0	0.655383	0.0073654	240	987.137
864	0	0	0.655383	0.0073654	240	989.384
865	0	0	0.655383	0.0073654	240	991.839
866	0	0	0.655383	0.0073654	240	995.279
867	0	0	0.655383	0.0073654	240	1000.7
868	0	0	0.655383	0.0073654	240	1009.07
869	0	0	0.655383	0.0073654	240	1021.31
870	0	0	0.655383	0.0073654	240	1038.41
871	0	0	0.655383	0.0073654	240	1060.53
872	0	0	0.655383	0.0073654	240	1087.82
873	0	0	0.655383	0.0073654	240	1120.2
874	0	0	0.655383	0.0073654	240	1158.11
875	0	0	0.655383	0.0073654	240	1200.56
876	0	0	0.655383	0.0073654	240	1247.33
877	0	0	0.655383	0.0073654	240	1323.79
878	0	0	0.655383	0.0073654	240	1377.36
879	0	0	0.655383	0.0073654	240	1431.98
880	0	0	0.655383	0.0073654	240	1486.69
881	0	0	0.655383	0.0073654	240	1540.64
882	0	0	0.655383	0.0073654	240	1592.91
883	0	0	0.655383	0.0073654	240	1642.4
884	0	0	0.655383	0.0073654	240	1688.37
885	0	0	0.655383	0.0073654	240	1730.29
886	0	0	0.655383	0.0073654	240	1767.46
887	0	0	0.655383	0.0073654	240	1800.16
888	0	0	0.655383	0.0073654	240	1827.97
889	0	0	0.655383	0.0073654	240	1851.51
890	0	0	0.655383	0.0073654	240	1870.98
891	0	0	0.655383	0.0073654	240	1887
892	0	0	0.655383	0.0073654	240	1899.54
893	0	0	0.655383	0.0073654	240	1909.81
894	0	0	0.655383	0.0073654	240	1917.61
895	0	0	0.655383	0.0073654	240	1923.09
896	0	0	0.655383	0.0073654	240	1926.87
897	0	0	0.261056	0.00650125	188	1930.1
898	0	0	0.200429	0.00560688	178	1931.51
899	0	0	0.163521	0.00493619	171	1932.42
900	0	0	0.131338	0.00426138	164	1932.92
901	0	0	0.107471	0.00369875	158	1933.23
902	0	0	0.093403	0.00333874	154	1933.42
903	0	0	0.0807438	0.00299455	150	1933.53
904	0	0	0.0749216	0.0028292	148	1933.71
905	0	0	0.0721333	0.00274833	147	1933.48
906	0	0	0.0667962	0.00259035	145	1933.26
907	0	0	0.0642448	0.00251329	144	1933.39
908	0	0	0.0642448	0.00251329	144	1933.18
909	0	0	0.0642448	0.00251329	144	1933.17
910	0	0	0.0617699	0.00243755	143	1933.17
911	0	0	0.0617699	0.00243755	143	1933.11
912	0	0	0.0617699	0.00243755	143	1933.1
913	0	0	0.0642448	0.00251329	144	1933.07
914	0	0	0.0642448	0.00251329	144	1933.04
915	0	0	0.0642448	0.00251329	144	1932.9
916	0	0	0.0642448	0.00251329	144	1932.85
917	0	0	0.0642448	0.00251329	144	1932.46
918	0	0	0.0642448	0.00251329	144	1932.08
919	0	0	0.0642448	0.00251329	144	1931.85
920	0	0	0.0642448	0.00251329	144	1930.4
921	0	0	0.0642448	0.00251329	144	1927.11
922	0	0	0.0642448	0.00251329	144	1921.82
923	0	0	0.0617699	0.00243755	143	1913.52
924	0	0	0.0617699	0.00243755	143	1900.54
925	0	0	0.0617699	0.00243755	143	1882.07
926	0	0	0.0617699	0.00243755	143	1856.47
927	0	0	0.0617699	0.00243755	143	1822.52
928	0	0	0.0617699	0.00243755	143	1778.11
929	0	0	0.0617699	0.00243755	143	1722.07
930	0	0	0.0617699	0.00243755	143	1654.96
931	0	0	0.0617699	0.00243755	143	1580.06
932	0	0	0.0617699	0.00243755	143	1501.25
933	0	0	0.0642448	0.00251329	144	1422.72
934	0	0	0.0642448	0.00251329	144	1346.74
935	0	1	0.0667962	0.00259035	145	1276.84
936	0	1	0.0721333	0.00274833	147	1214.54
937	0	1	0.0807438	0.00299455	150	1137.81
938	0	1	0.093403	0.00333874	154	1097.53
939	0	1	0.115053	0.00388372	160	1065.32
940	0	1	0.153843	0.00474264	169	1040.75
941	0	1	0.248223	0.00633186	186	1022.22
942	0	1	0.655383	0.0073654	240	1009.07
943	0	1	0.655383	0.0073654	240	999.619
944	0	1	0.655383	0.0073654	240	993.458
945	0	1	0.655383	0.0073654	240	989.703
946	0	1	0.655383	0.0073654	240	987.68
