#filename	image_start#	image_end#	motion_start#	motion_end#	histo_th	mu	sigma	theta	idx_s1	idx_e1	idx_s2	idx_e2	idx_s3	idx_e3	idx_s4	idx_e4	idx_s5	idx_e5	idx_s6	idx_e6	idx_s7	idx_e7	idx_s8	idx_e8	idx_s9	idx_e9	idx_s10	idx_e10
chs	65	894	275	1935	126	208	50	0.0063	65	106	160	184	254	275	330	361	422	450	512	537	601	628	688	715	770	807	866	893
hbh	65	947	286	2094	126	220	50	0.0053	65	98	154	203	244	299	359	399	444	497	534	586	625	680	727	770	819	858	911	946
khd	34	913	278	2064	126	220	50	0.0053	65	98	154	203	244	299	359	399	444	497	534	586	625	680	727	770	819	858	911	946
user1	53	923	278	2050	126	220	50	0.0053	65	98	154	203	244	299	359	399	444	497	534	586	625	680	727	770	819	858	911	946
user2	35	651	270	1484	126	220	50	0.0053	65	98	154	203	244	299	359	399	444	497	534	586	625	680	727	770	819	858	911	946
user3	59	1013	293	2232	126	220	50	0.0053	65	98	154	203	244	299	359	399	444	497	534	586	625	680	727	770	819	858	911	946
